components/alu/sim/alu_tb.vcd
$date
	Mon Mar 30 03:31:22 2009
$end
$version
	Icarus Verilog
$end
$timescale
	1ps
$end
$scope module alu_tb $end
$var wire 1 ! C $end
$var wire 1 " V $end
$var wire 8 # Y [7:0] $end
$var wire 1 $ Z $end
$var reg 8 % A [7:0] $end
$var reg 8 & A_u [7:0] $end
$var reg 8 ' B [7:0] $end
$var reg 8 ( B_u [7:0] $end
$var reg 1 ) CLK $end
$var reg 1 * CLR $end
$var reg 4 + S [3:0] $end
$var reg 8 , Y_u [7:0] $end
$var reg 8 - aa [7:0] $end
$var reg 8 . bb [7:0] $end
$var reg 1 / check_here $end
$var reg 1 0 clrc $end
$var reg 32 1 count [31:0] $end
$var reg 32 2 errors_found [31:0] $end
$var reg 1 3 finished $end
$var reg 32 4 infile [31:0] $end
$var reg 1 5 last_CLR $end
$var reg 32 6 last_ss [31:0] $end
$var reg 8 7 op1 [7:0] $end
$var reg 8 8 op2 [7:0] $end
$var reg 32 9 outfile [31:0] $end
$var reg 32 : random_count [31:0] $end
$var reg 1 ; random_mode $end
$var reg 32 < random_number [31:0] $end
$var reg 8 = result [7:0] $end
$var reg 8 > result_u [7:0] $end
$var reg 32 ? ss [31:0] $end
$var reg 1 @ started $end
$var reg 32 A success [31:0] $end
$scope function bas $end
$var reg 8 B a1 [7:0] $end
$var reg 8 C bas [7:0] $end
$var reg 1 D direction $end
$var reg 8 E shift_size [7:0] $end
$var reg 8 F tmp [7:0] $end
$var reg 32 G tmp2 [31:0] $end
$upscope $end
$scope function get_random_opcode $end
$var reg 32 H get_random_opcode [32:1] $end
$var reg 32 I myseed [31:0] $end
$var reg 32 J tmp [31:0] $end
$upscope $end
$scope function string2opcode $end
$var reg 4 K opcode [3:0] $end
$var reg 32 L s [31:0] $end
$var reg 4 M string2opcode [3:0] $end
$upscope $end
$scope module this_record $end
$var reg 8 N A [7:0] $end
$var reg 8 O B [7:0] $end
$var reg 32 P S [31:0] $end
$var reg 8 Q Y [7:0] $end
$upscope $end
$scope module next_record $end
$var reg 8 R A [7:0] $end
$var reg 8 S B [7:0] $end
$var reg 32 T S [31:0] $end
$var reg 8 U Y [7:0] $end
$upscope $end
$scope module alu_inst0 $end
$var wire 8 V A [7:0] $end
$var wire 8 W B [7:0] $end
$var wire 1 ! C $end
$var wire 1 X CLK $end
$var wire 1 Y CLR $end
$var wire 4 Z S [3:0] $end
$var wire 1 " V $end
$var wire 8 [ Y [7:0] $end
$var wire 1 $ Z $end
$var wire 1 \ add_AB $end
$var wire 1 ] and_AB $end
$var wire 1 ^ clr_ALL $end
$var wire 1 _ clr_C $end
$var wire 1 ` clr_V $end
$var wire 1 a clr_Z $end
$var wire 1 b cmp_AB $end
$var wire 1 c cpl_A $end
$var wire 1 d cpl_B $end
$var wire 1 e dec_A $end
$var wire 1 f dec_B $end
$var wire 1 g inc_A $end
$var wire 1 h inc_B $end
$var wire 1 i load_inputs $end
$var wire 1 j load_outputs $end
$var wire 1 k mul_AB $end
$var wire 1 l or_AB $end
$var wire 1 m reset $end
$var wire 1 n sl_AB $end
$var wire 1 o sr_AB $end
$var wire 1 p sub_AB $end
$var wire 1 q xor_AB $end
$scope module controller $end
$var wire 1 \ add_AB $end
$var wire 1 ] and_AB $end
$var wire 1 X clk $end
$var wire 1 ^ clr $end
$var wire 1 _ clr_C $end
$var wire 1 ` clr_V $end
$var wire 1 a clr_Z $end
$var wire 1 b cmp_AB $end
$var wire 1 c cpl_A $end
$var wire 1 d cpl_B $end
$var wire 1 e dec_A $end
$var wire 1 f dec_B $end
$var wire 1 g inc_A $end
$var wire 1 h inc_B $end
$var wire 1 k mul_AB $end
$var wire 4 r opcode [3:0] $end
$var wire 1 l or_AB $end
$var wire 1 m reset $end
$var wire 1 n sl_AB $end
$var wire 1 o sr_AB $end
$var wire 1 p sub_AB $end
$var wire 1 q xor_AB $end
$var reg 1 s load_inputs $end
$var reg 1 t load_outputs $end
$var reg 4 u next_opcode [3:0] $end
$var reg 65538 v opcode_sel [65537:0] $end
$var reg 4 w this_opcode [3:0] $end
$upscope $end
$scope module datapath $end
$var wire 8 x A [7:0] $end
$var wire 8 y B [7:0] $end
$var wire 1 ! C $end
$var wire 1 " V $end
$var wire 8 z Y [7:0] $end
$var wire 1 $ Z $end
$var wire 1 \ add_AB $end
$var wire 1 { adderORsel $end
$var wire 1 | adderXORsel $end
$var wire 8 } adder_in_a [7:0] $end
$var wire 8 ~ adder_in_b [7:0] $end
$var wire 8 !" adder_out [7:0] $end
$var wire 8 "" alu_out [7:0] $end
$var wire 1 ] and_AB $end
$var wire 1 #" carry $end
$var wire 1 $" carry_in $end
$var wire 9 %" carry_out [8:0] $end
$var wire 1 X clk $end
$var wire 1 ^ clr $end
$var wire 1 _ clr_C $end
$var wire 1 ` clr_V $end
$var wire 1 a clr_Z $end
$var wire 1 b cmp_AB $end
$var wire 1 c cpl_A $end
$var wire 1 d cpl_B $end
$var wire 1 e dec_A $end
$var wire 1 f dec_B $end
$var wire 1 g inc_A $end
$var wire 1 h inc_B $end
$var wire 1 i load_inputs $end
$var wire 1 j load_outputs $end
$var wire 8 &" logic0 [7:0] $end
$var wire 8 '" logic1 [7:0] $end
$var wire 1 k mul_AB $end
$var wire 1 l or_AB $end
$var wire 1 m reset $end
$var wire 1 (" shifter_carry $end
$var wire 1 )" shifter_direction $end
$var wire 8 *" shifter_inA [7:0] $end
$var wire 8 +" shifter_inB [7:0] $end
$var wire 8 ," shifter_out [7:0] $end
$var wire 1 n sl_AB $end
$var wire 1 o sr_AB $end
$var wire 1 p sub_AB $end
$var wire 1 q xor_AB $end
$var reg 8 -" Areg [7:0] $end
$var reg 8 ." Breg [7:0] $end
$var reg 1 /" Creg $end
$var reg 1 0" Vreg $end
$var reg 8 1" Yreg [7:0] $end
$var reg 1 2" Zreg $end
$scope module adder $end
$var wire 1 { ORsel $end
$var wire 1 | XORsel $end
$var wire 8 3" XandY [7:0] $end
$var wire 8 4" XorY [7:0] $end
$var wire 8 5" XxorY [7:0] $end
$var wire 8 6" and_result [7:0] $end
$var wire 1 $" carry_in $end
$var wire 8 7" or_result [7:0] $end
$var wire 8 8" x [7:0] $end
$var wire 8 9" xor_result [7:0] $end
$var wire 8 :" y [7:0] $end
$var reg 9 ;" carry_out [8:0] $end
$var reg 32 <" i [31:0] $end
$var reg 8 =" z [7:0] $end
$upscope $end
$scope module shifter $end
$var wire 1 X clk $end
$var wire 1 )" direction $end
$var wire 8 >" x [7:0] $end
$var wire 8 ?" y [7:0] $end
$var reg 1 @" c $end
$var reg 8 A" y_tmp [7:0] $end
$var reg 8 B" z [7:0] $end
$upscope $end
$upscope $end
$upscope $end
$upscope $end
$enddefinitions $end
#0
$dumpvars
bx B"
b0xxx A"
0@"
bx ?"
bx >"
bx ="
b1000 <"
bx ;"
bx :"
bx 9"
bx 8"
bx 7"
bx 6"
bx 5"
bx 4"
bx 3"
x2"
bx 1"
x0"
x/"
bx ."
bx -"
bx ,"
bx +"
bx *"
x)"
0("
b1 '"
b0 &"
bx %"
x$"
x#"
bx ""
bx !"
bx ~
bx }
x|
x{
bx z
bx y
bx x
bx w
bx v
bx u
xt
xs
bx r
xq
xp
xo
xn
xm
xl
xk
xj
xi
xh
xg
xf
xe
xd
xc
xb
za
z`
z_
x^
x]
x\
bx [
bx Z
xY
0X
bx W
bx V
bx U
bx T
bx S
bx R
bx Q
bx P
bx O
bx N
bx M
bx L
bx K
bx J
bx I
bx H
bx G
bx F
bx E
xD
bx C
bx B
bx A
x@
bx ?
bx >
bx =
bx <
1;
b101000 :
bx 9
bx 8
bx 7
bx 6
x5
bx 4
x3
b0 2
bx 1
x0
0/
bx .
bx -
bx ,
bx +
x*
0)
bx (
bx '
bx &
bx %
x$
bx #
x"
x!
$end
#1000
b0 ""
b0 !"
b0 %"
b0 ="
b0 ;"
b0 5"
b0 9"
b0 3"
b0 6"
b0 4"
b0 7"
b0 ~
b0 :"
b0 }
b0 8"
0#"
0$"
b1000 <"
1|
0)"
0{
0\
0g
0h
0p
0b
0n
0o
1^
0e
0f
0k
0c
0]
0l
0q
0d
0s
0i
b1000000 v
b110 w
00"
0"
0/"
0!
12"
1$
b0 1"
b0 #
b0 [
b0 z
b0 ."
b0 +"
b0 ?"
b0 -"
b0 *"
b0 >"
b100111 :
00
b11000010110010001100100 ?
b11000010110010001100100 H
b110011010001101101110101100110 J
b10110011010001101101101000110110 I
b10000001 .
b100100 -
b10000011000001110111110000000110 <
0@
1*
1m
1Y
b1 1
03
b10000000000000000000000000000011 4
#10000000
1)
1X
#15000000
15
#20000000
b0 A"
b0 B"
b0 ,"
0)
0X
#25000000
b11000010110010001100100 T
b10000001 S
b100100 R
0*
0m
0Y
b0 +
b0 Z
b0 r
b0 M
b0 K
b11000010110010001100100 L
b10000001 '
b10000001 W
b10000001 y
b100100 %
b100100 V
b100100 x
#30000000
1\
0^
1t
1j
1s
1i
b1 v
b0 w
1)
1X
#35000000
b11000010110010001100100 P
b10000001 O
b100100 N
05
#40000000
0)
0X
#50000000
b10100101 ""
b10100101 !"
b10100101 ="
b0 ;"
b100100 }
b100100 8"
b10100101 5"
b10100101 9"
b10100101 4"
b10100101 7"
b1000 <"
b10000001 ~
b10000001 :"
b10000001 ."
b10000001 +"
b10000001 ?"
b100100 -"
b100100 *"
b100100 >"
1)
1X
#60000000
1@"
1("
b0 A"
b1001000 B"
b1001000 ,"
0)
0X
#70000000
02"
0$
b10100101 1"
b10100101 #
b10100101 [
b10100101 z
b100110 :
b1101001011011100110001101100001 ?
b1101001011011100110001101100001 H
b11000110111011010011110010001101 J
b1000110111011010011101100110010 I
b1100001 .
b10010010 -
b10010011001010111111001000100110 <
b10 1
1@
1)
1X
#75000000
1/
b10100101 >
b10100101 ,
b10000001 (
b100100 &
b11000010110010001100100 6
b10100101 =
b10000001 8
b100100 7
#80000000
b0 A"
1@"
1("
b1001000 B"
b1001000 ,"
0)
0X
#85000000
b1101001011011100110001101100001 T
b1100001 S
b10010010 R
b1 +
b1 Z
b1 r
b1 M
b1 K
b1101001011011100110001101100001 L
b1100001 '
b1100001 W
b1100001 y
b10010010 %
b10010010 V
b10010010 x
#90000000
1$"
b10010011 ""
0\
1g
b1 %"
b10010011 !"
b10010011 ="
b1 ;"
1s
1i
b10 v
b10010010 }
b10010010 8"
b10010010 5"
b10010010 9"
b0 3"
b0 6"
b10010010 4"
b10010010 7"
b1000 <"
b0 ~
b0 :"
b1100001 ."
b1100001 +"
b1100001 ?"
b10010010 -"
b10010010 *"
b10010010 >"
b1 w
b100101 :
10
b11000010111001101110010 ?
b11000010111001101110010 H
b1101010111000111000000111010101 J
b11101010111000110111111000000011 I
b11000101 .
b1100 -
b10100011100101010001000001000111 <
b11 1
1)
1X
#95000000
b1101001011011100110001101100001 P
b1100001 O
b10010010 N
0/
#100000000
b0 A"
0@"
0("
b100101 B"
b100101 ,"
0)
0X
#105000000
0$"
b1 ""
0g
1^
b1 !"
b1 ="
b1 ;"
0s
0i
b1000000 v
b0 5"
b0 9"
b0 4"
b0 7"
b1000 <"
b0 }
b0 8"
b110 w
12"
1$
b0 1"
b0 #
b0 [
b0 z
b0 ."
b0 +"
b0 ?"
b0 -"
b0 *"
b0 >"
b11000010111001101110010 T
b11000101 S
b1100 R
1*
1m
1Y
b101 +
b101 Z
b101 r
b101 M
b101 K
b11000010111001101110010 L
b11000101 '
b11000101 W
b11000101 y
b1100 %
b1100 V
b1100 x
#110000000
b100100 :
b1100100011001010110001101100001 ?
b1100100011001010110001101100001 H
b1100101101000010011100111001011 J
b11100101101000010011011000011000 I
b100111 .
b111111 -
b11000111111011111000101010001111 <
b100 1
1)
1X
#115000000
b11000010111001101110010 P
b11000101 O
b1100 N
15
#120000000
b0 B"
b0 ,"
0)
0X
#125000000
b1100100011001010110001101100001 T
b100111 S
b111111 R
b111 +
b111 Z
b111 r
b111 M
b111 K
b1100100011001010110001101100001 L
b100111 '
b100111 W
b100111 y
b111111 %
b111111 V
b111111 x
#130000000
b100011 :
00
b1101001011011100110001101100010 ?
b1101001011011100110001101100010 H
b11000101101000001101000010001011 J
b1000101101000001100111000001011 I
b10101100 .
b10011100 -
b111010010001101000111101110100 <
b101 1
1)
1X
#135000000
b1100100011001010110001101100001 P
b100111 O
b111111 N
#140000000
0)
0X
#145000000
b1101001011011100110001101100010 T
b10101100 S
b10011100 R
0*
0m
0Y
b1001 +
b1001 Z
b1001 r
b1001 M
b1001 K
b1101001011011100110001101100010 L
b10101100 '
b10101100 W
b10101100 y
b10011100 %
b10011100 V
b10011100 x
#150000000
1$"
1h
0^
1s
1i
b1000000000 v
02"
0$
b0 1"
b0 #
b0 [
b0 z
b1001 w
b100010 :
b11000100001101111110110010001000 J
b1000100001101111110101010100001 I
b10110100 .
b10011011 -
b11100010010100100001000011000100 <
b110 1
1)
1X
#155000000
b1101001011011100110001101100010 P
b10101100 O
b10011100 N
05
1/
b0 >
b0 ,
b100111 (
b111111 &
b1100100011001010110001101100001 6
b0 =
b100111 8
b111111 7
#160000000
0)
0X
#165000000
b10110100 S
b10011011 R
b10110100 '
b10110100 W
b10110100 y
b10011011 %
b10011011 V
b10011011 x
#170000000
b10110101 ""
b10110101 !"
b10110101 ="
b1 ;"
b10110100 5"
b10110100 9"
b10110100 4"
b10110100 7"
b1000 <"
b10110100 ~
b10110100 :"
b1 1"
b1 #
b1 [
b1 z
b10110100 ."
b10110100 +"
b10110100 ?"
b10011011 -"
b10011011 *"
b10011011 >"
b100001 :
b1100100011001010110001101100010 ?
b1100100011001010110001101100010 H
b11010101111111001111101010101011 J
b1010101111111001111100000000000 I
b101000 .
b11101100 -
b101100001010101001101101011000 <
b111 1
1)
1X
#175000000
b10110100 O
b10011011 N
b1 2
0/
b10101101 >
b1 ,
b10101100 (
b10011100 &
b1101001011011100110001101100010 6
b10101101 =
b10101100 8
b10011100 7
#180000000
0@"
0("
b0 A"
b10111001 B"
b10111001 ,"
0)
0X
#185000000
b1100100011001010110001101100010 T
b101000 S
b11101100 R
b1000 +
b1000 Z
b1000 r
b1000 M
b1000 K
b1100100011001010110001101100010 L
b101000 '
b101000 W
b101000 y
b11101100 %
b11101100 V
b11101100 x
#190000000
b111110000 %"
b101000 3"
b101000 6"
b11111111 }
b11111111 8"
0$"
b100111 ""
0h
1f
b100111 !"
b100111 ="
b111110000 ;"
1s
1i
b100000000 v
b11010111 5"
b11010111 9"
b11111111 4"
b11111111 7"
b1000 <"
b101000 ~
b101000 :"
b10110101 1"
b10110101 #
b10110101 [
b10110101 z
b101000 ."
b101000 +"
b101000 ?"
b11101100 -"
b11101100 *"
b11101100 >"
b1000 w
b100000 :
b11000010110010001100100 ?
b11000010110010001100100 H
b1111011100001010111000111110111 J
b11111011100001010110111110101111 I
b100010 .
b111111 -
b100000001101010101010101000000 <
b1000 1
1)
1X
#195000000
b1100100011001010110001101100010 P
b101000 O
b11101100 N
1/
b10110101 >
b10110101 ,
b10110100 (
b10011011 &
b10110101 =
b10110100 8
b10011011 7
#200000000
b11101100 B"
b11101100 ,"
0)
0X
#205000000
b11000010110010001100100 T
b100010 S
b111111 R
b0 +
b0 Z
b0 r
b0 M
b0 K
b11000010110010001100100 L
b100010 '
b100010 W
b100010 y
b111111 %
b111111 V
b111111 x
#210000000
0#"
b111111 4"
b111111 7"
b111111 }
b111111 8"
b1100001 ""
1\
0f
b1111100 %"
b1100001 !"
b1100001 ="
b1111100 ;"
1s
1i
b1 v
b11101 5"
b11101 9"
b100010 3"
b100010 6"
b1000 <"
b100010 ~
b100010 :"
b0 w
b100111 1"
b100111 #
b100111 [
b100111 z
b100010 ."
b100010 +"
b100010 ?"
b111111 -"
b111111 *"
b111111 >"
b11111 :
b11000110110110001110010 ?
b11000110110110001110010 H
b10000100110101100000011000001001 J
b100110101100000010010111111 I
b11010001 .
b10100100 -
b1000010010111101000000110000100 <
b1001 1
1)
1X
#215000000
b11000010110010001100100 P
b100010 O
b111111 N
0/
b100111 >
b100111 ,
b101000 (
b11101100 &
b1100100011001010110001101100010 6
b100111 =
b101000 8
b11101100 7
#220000000
1@"
1("
b0 A"
b11111100 B"
b11111100 ,"
0)
0X
#225000000
b11000110110110001110010 T
b11010001 S
b10100100 R
b110 +
b110 Z
b110 r
b110 M
b110 K
b11000110110110001110010 L
b11010001 '
b11010001 W
b11010001 y
b10100100 %
b10100100 V
b10100100 x
#230000000
b1110101 ""
0\
1^
b100000000 %"
b1110101 !"
b1110101 ="
b100000000 ;"
0s
0i
b1000000 v
b10100100 }
b10100100 8"
b1110101 5"
b1110101 9"
b10000000 3"
b10000000 6"
b11110101 4"
b11110101 7"
b1000 <"
b11010001 ~
b11010001 :"
b1100001 1"
b1100001 #
b1100001 [
b1100001 z
b11010001 ."
b11010001 +"
b11010001 ?"
b10100100 -"
b10100100 *"
b10100100 >"
b110 w
b11110 :
10
b11000010110010001100100 ?
b11000010110010001100100 H
b11100000011001110001010011000000 J
b1100000011001110001001100001001 I
b10110111 .
b11100100 -
b1100010101011010100000011 <
b1010 1
1)
1X
#235000000
b11000110110110001110010 P
b11010001 O
b10100100 N
1/
b1100001 >
b1100001 ,
b100010 (
b111111 &
b11000010110010001100100 6
b1100001 =
b100010 8
b111111 7
#240000000
b0 A"
1@"
1("
b1001001 B"
b1001001 ,"
0)
0X
#245000000
b0 ""
b0 %"
b0 !"
b0 ="
b0 ;"
b0 }
b0 8"
b0 5"
b0 9"
b0 3"
b0 6"
b0 4"
b0 7"
b1000 <"
b0 ~
b0 :"
12"
1$
b0 1"
b0 #
b0 [
b0 z
b0 ."
b0 +"
b0 ?"
b0 -"
b0 *"
b0 >"
b11000010110010001100100 T
b10110111 S
b11100100 R
1*
1m
1Y
b0 +
b0 Z
b0 r
b0 M
b0 K
b11000010110010001100100 L
b10110111 '
b10110111 W
b10110111 y
b11100100 %
b11100100 V
b11100100 x
#250000000
b11101 :
b11000110110110001110010 ?
b11000110110110001110010 H
b11001000111001011000100010010001 J
b1001000111001011000011100101010 I
b1100000 .
b11110100 -
b1110110101000110000100011101 <
b1011 1
1)
1X
#255000000
b11000010110010001100100 P
b10110111 O
b11100100 N
15
#260000000
0@"
0("
b0 B"
b0 ,"
0)
0X
#265000000
b11000110110110001110010 T
b1100000 S
b11110100 R
b110 +
b110 Z
b110 r
b110 M
b110 K
b11000110110110001110010 L
b1100000 '
b1100000 W
b1100000 y
b11110100 %
b11110100 V
b11110100 x
#270000000
b11100 :
00
b1101001011011100110001101100010 ?
b1101001011011100110001101100010 H
b11000011011001110011011010000110 J
b1000011011001110011010011000100 I
b111111 .
b1111 -
b11101100000101110011011011011000 <
b1100 1
1)
1X
#275000000
b11000110110110001110010 P
b1100000 O
b11110100 N
#280000000
0)
0X
#285000000
b1101001011011100110001101100010 T
b111111 S
b1111 R
0*
0m
0Y
b1001 +
b1001 Z
b1001 r
b1001 M
b1001 K
b1101001011011100110001101100010 L
b111111 '
b111111 W
b111111 y
b1111 %
b1111 V
b1111 x
#290000000
1$"
1h
0^
1s
1i
b1000000000 v
b1001 w
b11011 :
b11000010111001101110010 ?
b11000010111001101110010 H
b11000000000111000001110010000000 J
b1000000000111000001101101011100 I
b100 .
b11100010 -
b1011111010000011001011110111110 <
b1101 1
1)
1X
#295000000
b1101001011011100110001101100010 P
b111111 O
b1111 N
05
0/
b0 >
b0 ,
b1100000 (
b11110100 &
b11000110110110001110010 6
b0 =
b1100000 8
b11110100 7
#300000000
0)
0X
#305000000
b11000010111001101110010 T
b100 S
b11100010 R
b101 +
b101 Z
b101 r
b101 M
b101 K
b11000010111001101110010 L
b100 '
b100 W
b100 y
b11100010 %
b11100010 V
b11100010 x
#310000000
b11100010 }
b11100010 8"
0$"
b0 ""
1)"
0h
1o
b11100110 !"
b11100110 ="
b0 ;"
b0 %"
1s
1i
b100000 v
b11100110 5"
b11100110 9"
b11100110 4"
b11100110 7"
b1000 <"
b100 ~
b100 :"
b101 w
b100 ."
b100 +"
b100 ?"
b11100010 -"
b11100010 *"
b11100010 >"
b11010 :
b1101001011011100110001101100001 ?
b1101001011011100110001101100001 H
b11001101110011111000100110011 J
b10011001101110011110111001100111 I
b111 .
b1100001 -
b11111001011001100010010011110010 <
b1110 1
1)
1X
#315000000
b11000010111001101110010 P
b100 O
b11100010 N
1/
b111111 (
b1111 &
b1101001011011100110001101100010 6
b0 =
b111111 8
b1111 7
#320000000
b101110 ""
0@"
0("
b0 A"
b101110 B"
b101110 ,"
0)
0X
#325000000
b1101001011011100110001101100001 T
b111 S
b1100001 R
b1 +
b1 Z
b1 r
b1 M
b1 K
b1101001011011100110001101100001 L
b111 '
b111 W
b111 y
b1100001 %
b1100001 V
b1100001 x
#330000000
1$"
b1100010 ""
0)"
1g
0o
b11 %"
b1100010 !"
b1100010 ="
b11 ;"
1s
1i
b10 v
b1100001 }
b1100001 8"
b1100001 5"
b1100001 9"
b0 3"
b0 6"
b1100001 4"
b1100001 7"
b1000 <"
b0 ~
b0 :"
02"
0$
b101110 1"
b101110 #
b101110 [
b101110 z
b111 ."
b111 +"
b111 ?"
b1100001 -"
b1100001 *"
b1100001 >"
b1 w
b11001 :
b1101001011011100110001101100010 ?
b1101001011011100110001101100010 H
b1001110011111001010111110011100 J
b11001110011111001010110010111000 I
b10010000 .
b10100 -
b11011011010100111010100010110110 <
b1111 1
1)
1X
#335000000
b1101001011011100110001101100001 P
b111 O
b1100001 N
0/
b101110 >
b101110 ,
b100 (
b11100010 &
b11000010111001101110010 6
b101110 =
b101110 C
b0 G
b101110 F
1D
b100 E
b11100010 B
b100 8
b11100010 7
#340000000
0@"
0("
b0 A"
b10110000 B"
b10110000 ,"
0)
0X
#345000000
b1101001011011100110001101100010 T
b10010000 S
b10100 R
b1001 +
b1001 Z
b1001 r
b1001 M
b1001 K
b1101001011011100110001101100010 L
b10010000 '
b10010000 W
b10010000 y
b10100 %
b10100 V
b10100 x
#350000000
b10010000 ~
b10010000 :"
b10010001 ""
0g
1h
b1 %"
b10010001 !"
b10010001 ="
b1 ;"
1s
1i
b1000000000 v
b10010000 5"
b10010000 9"
b10010000 4"
b10010000 7"
b1000 <"
b0 }
b0 8"
b1001 w
b1100010 1"
b1100010 #
b1100010 [
b1100010 z
b10010000 ."
b10010000 +"
b10010000 ?"
b10100 -"
b10100 *"
b10100 >"
b11000 :
b11000010110010001100100 ?
b11000010110010001100100 H
b11101010100000101101100011010101 J
b1101010100000101101011010011010 I
b11100100 .
b10001 -
b1000110010001011010110110001100 <
b10000 1
1)
1X
#355000000
b1101001011011100110001101100010 P
b10010000 O
b10100 N
1/
b1100010 >
b1100010 ,
b111 (
b1100001 &
b1101001011011100110001101100001 6
b1100010 =
b111 8
b1100001 7
#360000000
b10100 B"
b10100 ,"
0)
0X
#365000000
b11000010110010001100100 T
b11100100 S
b10001 R
b0 +
b0 Z
b0 r
b0 M
b0 K
b11000010110010001100100 L
b11100100 '
b11100100 W
b11100100 y
b10001 %
b10001 V
b10001 x
#370000000
b0 %"
b10001 }
b10001 8"
0$"
b11110101 ""
1\
0h
b11110101 !"
b11110101 ="
b0 ;"
1s
1i
b1 v
b11110101 5"
b11110101 9"
b11110101 4"
b11110101 7"
b1000 <"
b11100100 ~
b11100100 :"
b10010001 1"
b10010001 #
b10010001 [
b10010001 z
b11100100 ."
b11100100 +"
b11100100 ?"
b10001 -"
b10001 *"
b10001 >"
b0 w
b10111 :
10
b11000010111001101110010 ?
b11000010111001101110010 H
b1100101111011000011011111001011 J
b11100101111011000011010010110110 I
b10101101 .
b11110101 -
b11010001100010010111010010100011 <
b10001 1
1)
1X
#375000000
b11000010110010001100100 P
b11100100 O
b10001 N
0/
b10010001 >
b10010001 ,
b10010000 (
b10100 &
b1101001011011100110001101100010 6
b10010001 =
b10010000 8
b10100 7
#380000000
0@"
0("
b0 A"
b10001 B"
b10001 ,"
0)
0X
#385000000
b0 ""
0\
1^
b0 !"
b0 ="
b0 ;"
0s
0i
b1000000 v
b0 }
b0 8"
b0 5"
b0 9"
b0 4"
b0 7"
b1000 <"
b0 ~
b0 :"
b110 w
12"
1$
b0 1"
b0 #
b0 [
b0 z
b0 ."
b0 +"
b0 ?"
b0 -"
b0 *"
b0 >"
b11000010111001101110010 T
b10101101 S
b11110101 R
1*
1m
1Y
b101 +
b101 Z
b101 r
b101 M
b101 K
b11000010111001101110010 L
b10101101 '
b10101101 W
b10101101 y
b11110101 %
b11110101 V
b11110101 x
#390000000
b10110 :
00
b1101001011011100110001101100001 ?
b1101001011011100110001101100001 H
b1101111110010011000101111011111 J
b11101111110010011000100100010110 I
b110000 .
b1110011 -
b1001001011011101110011110010010 <
b10010 1
1)
1X
#395000000
b11000010111001101110010 P
b10101101 O
b11110101 N
15
#400000000
b0 B"
b0 ,"
0)
0X
#405000000
b1101001011011100110001101100001 T
b110000 S
b1110011 R
0*
0m
0Y
b1 +
b1 Z
b1 r
b1 M
b1 K
b1101001011011100110001101100001 L
b110000 '
b110000 W
b110000 y
b1110011 %
b1110011 V
b1110011 x
#410000000
1$"
1g
0^
1s
1i
b10 v
b1 w
b10101 :
b11000010111001101110010 ?
b11000010111001101110010 H
b11100000100010110111111011000001 J
b1100000100010110111110000111100 I
b10110101 .
b10101000 -
b1100001001111011000101111000010 <
b10011 1
1)
1X
#415000000
b1101001011011100110001101100001 P
b110000 O
b1110011 N
05
1/
b0 >
b0 ,
b10101101 (
b11110101 &
b11000010111001101110010 6
b0 =
b10101111 C
b0 G
b10101111 F
b10101101 E
b11110101 B
b10101101 8
b11110101 7
#420000000
0)
0X
#425000000
b11000010111001101110010 T
b10110101 S
b10101000 R
b101 +
b101 Z
b101 r
b101 M
b101 K
b11000010111001101110010 L
b10110101 '
b10110101 W
b10110101 y
b10101000 %
b10101000 V
b10101000 x
#430000000
b10100000 3"
b10100000 6"
b10110101 ~
b10110101 :"
0$"
b0 ""
1)"
0g
1o
b1011101 !"
b1011101 ="
b101000000 ;"
b101000000 %"
1s
1i
b100000 v
b11101 5"
b11101 9"
b10111101 4"
b10111101 7"
b1000 <"
b10101000 }
b10101000 8"
b10110101 ."
b10110101 +"
b10110101 ?"
b10101000 -"
b10101000 *"
b10101000 >"
b101 w
b10100 :
b1101001011011100110001101100010 ?
b1101001011011100110001101100010 H
b10000101011101101000000000001010 J
b101011101100111111000000000 I
b1000000 .
b1100 -
b1100010010010001110100111000100 <
b10100 1
1)
1X
#435000000
b11000010111001101110010 P
b10110101 O
b10101000 N
b10 2
0/
b1110100 >
b110000 (
b1110011 &
b1101001011011100110001101100001 6
b1110100 =
b110000 8
b1110011 7
#440000000
1#"
b1000101 ""
1@"
1("
b0 A"
b1000101 B"
b1000101 ,"
0)
0X
#445000000
b1101001011011100110001101100010 T
b1000000 S
b1100 R
b1001 +
b1001 Z
b1001 r
b1001 M
b1001 K
b1101001011011100110001101100010 L
b1000000 '
b1000000 W
b1000000 y
b1100 %
b1100 V
b1100 x
#450000000
b1000001 ""
1$"
0)"
1h
0o
b1 %"
b1000001 !"
b1000001 ="
b1 ;"
1s
1i
b1000000000 v
b0 }
b0 8"
b1000000 5"
b1000000 9"
b0 3"
b0 6"
b1000000 4"
b1000000 7"
b1000 <"
b1000000 ~
b1000000 :"
b1001 w
1/"
1!
02"
0$
b1000101 1"
b1000101 #
b1000101 [
b1000101 z
b1000000 ."
b1000000 +"
b1000000 ?"
b1100 -"
b1100 *"
b1100 >"
b10011 :
10
b11011010111010101101100 ?
b11011010111010101101100 H
b1011100011111000011001110111000 J
b11011100011111000011000010100110 I
b1000 .
b10011100 -
b10001110100100010110010000011101 <
b10101 1
1)
1X
#455000000
b1101001011011100110001101100010 P
b1000000 O
b1100 N
1/
b1000101 >
b1000101 ,
b10110101 (
b10101000 &
b11000010111001101110010 6
b1000101 =
b1000101 C
b0 G
b1000101 F
b10110101 E
b10101000 B
b10110101 8
b10101000 7
#460000000
0@"
0("
b1100 B"
b1100 ,"
0)
0X
#465000000
0#"
0$"
b1 ""
0h
1^
b1 !"
b1 ="
b1 ;"
0s
0i
b1000000 v
b0 5"
b0 9"
b0 4"
b0 7"
b1000 <"
b0 ~
b0 :"
0/"
0!
12"
1$
b0 1"
b0 #
b0 [
b0 z
b0 ."
b0 +"
b0 ?"
b0 -"
b0 *"
b0 >"
b110 w
b11011010111010101101100 T
b1000 S
b10011100 R
1*
1m
1Y
b1010 +
b1010 Z
b1010 r
b1010 M
b1010 K
b11011010111010101101100 L
b1000 '
b1000 W
b1000 y
b10011100 %
b10011100 V
b10011100 x
#470000000
b10010 :
00
b1101001011011100110001101100010 ?
b1101001011011100110001101100010 H
b10111100101000000010101001111001 J
b111100101000000010100111111000 I
b11111110 .
b11011110 -
b1011000010110110011010110110000 <
b10110 1
1)
1X
#475000000
b11011010111010101101100 P
b1000 O
b10011100 N
15
#480000000
b0 B"
b0 ,"
0)
0X
#485000000
b1101001011011100110001101100010 T
b11111110 S
b11011110 R
0*
0m
0Y
b1001 +
b1001 Z
b1001 r
b1001 M
b1001 K
b1101001011011100110001101100010 L
b11111110 '
b11111110 W
b11111110 y
b11011110 %
b11011110 V
b11011110 x
#490000000
1$"
1h
0^
1s
1i
b1000000000 v
02"
0$
b0 1"
b0 #
b0 [
b0 z
b1001 w
b10001 :
10
b1100100011001010110001101100010 ?
b1100100011001010110001101100010 H
b11000100101110101111001010001001 J
b1000100101110101111000011001110 I
b1010001 .
b101100 -
b11111000101110110100110011110001 <
b10111 1
1)
1X
#495000000
b1101001011011100110001101100010 P
b11111110 O
b11011110 N
05
0/
b0 >
b0 ,
b1000 (
b10011100 &
b11011010111010101101100 6
b0 =
b1000 8
b10011100 7
#500000000
0)
0X
