blue8/alu.vcd
$date
    Thu Dec  8 22:08:23 2005
$end
$version
    GPLCVER_2.11a of 07/05/05
$end
$timescale
    1 ns
$end
$scope module t_alu $end
$scope module U0 $end
$var wire       1 !    a2 $end
$var wire       1 "    aand $end
$var wire       1 #    abar $end
$var wire       1 $    aor $end
$var wire       1 %    asum $end
$var wire       1 &    axor $end
$var reg      16 '    dout [15:0] $end
$var wire       1 (    overflow $end
$var wire      16 )    y [15:0] $end
$var wire      16 *    z [15:0] $end
$upscope $end
$upscope $end
$enddefinitions $end
#0
$dumpvars
x!
x"
x#
x$
x%
x&
bz '
x(
bx )
bx *
$end
#1
b10101010 *
b1010101 )
#2
0(
b11111111 '
1%
#3
bz '
0%
#4
b11111111 '
1$
#5
bz '
0$
#6
b0 '
1"
#7
bz '
0"
#8
b1111111101010101 '
1#
#9
bz '
0#
#10
b101010100 '
1!
#11
bz '
0!
#12
b111111111000000 *
#13
b1000000000010101 '
1(
1%
#14
bz '
0(
0%
