blue8/blue.vcd
$date
	Tue Dec 13 22:10:33 2005
$end
$version
	ModelSim Version 6.0a
$end
$timescale
	1ps
$end
$scope module t_blue $end
$scope module U0 $end
$var wire 1 ! clear $end
$var wire 1 " clk $end
$var wire 1 # start $end
$var wire 1 $ stop $end
$var wire 1 % exam $end
$var wire 1 & deposit $end
$var wire 1 ' accout [15] $end
$var wire 1 ( accout [14] $end
$var wire 1 ) accout [13] $end
$var wire 1 * accout [12] $end
$var wire 1 + accout [11] $end
$var wire 1 , accout [10] $end
$var wire 1 - accout [9] $end
$var wire 1 . accout [8] $end
$var wire 1 / accout [7] $end
$var wire 1 0 accout [6] $end
$var wire 1 1 accout [5] $end
$var wire 1 2 accout [4] $end
$var wire 1 3 accout [3] $end
$var wire 1 4 accout [2] $end
$var wire 1 5 accout [1] $end
$var wire 1 6 accout [0] $end
$var wor 1 7 bus [15] $end
$var wor 1 8 bus [14] $end
$var wor 1 9 bus [13] $end
$var wor 1 : bus [12] $end
$var wor 1 ; bus [11] $end
$var wor 1 < bus [10] $end
$var wor 1 = bus [9] $end
$var wor 1 > bus [8] $end
$var wor 1 ? bus [7] $end
$var wor 1 @ bus [6] $end
$var wor 1 A bus [5] $end
$var wor 1 B bus [4] $end
$var wor 1 C bus [3] $end
$var wor 1 D bus [2] $end
$var wor 1 E bus [1] $end
$var wor 1 F bus [0] $end
$var wire 1 G mabus [15] $end
$var wire 1 H mabus [14] $end
$var wire 1 I mabus [13] $end
$var wire 1 J mabus [12] $end
$var wire 1 K mabus [11] $end
$var wire 1 L mabus [10] $end
$var wire 1 M mabus [9] $end
$var wire 1 N mabus [8] $end
$var wire 1 O mabus [7] $end
$var wire 1 P mabus [6] $end
$var wire 1 Q mabus [5] $end
$var wire 1 R mabus [4] $end
$var wire 1 S mabus [3] $end
$var wire 1 T mabus [2] $end
$var wire 1 U mabus [1] $end
$var wire 1 V mabus [0] $end
$var wire 1 W aluzbus [15] $end
$var wire 1 X aluzbus [14] $end
$var wire 1 Y aluzbus [13] $end
$var wire 1 Z aluzbus [12] $end
$var wire 1 [ aluzbus [11] $end
$var wire 1 \ aluzbus [10] $end
$var wire 1 ] aluzbus [9] $end
$var wire 1 ^ aluzbus [8] $end
$var wire 1 _ aluzbus [7] $end
$var wire 1 ` aluzbus [6] $end
$var wire 1 a aluzbus [5] $end
$var wire 1 b aluzbus [4] $end
$var wire 1 c aluzbus [3] $end
$var wire 1 d aluzbus [2] $end
$var wire 1 e aluzbus [1] $end
$var wire 1 f aluzbus [0] $end
$var wire 1 g aluybus [15] $end
$var wire 1 h aluybus [14] $end
$var wire 1 i aluybus [13] $end
$var wire 1 j aluybus [12] $end
$var wire 1 k aluybus [11] $end
$var wire 1 l aluybus [10] $end
$var wire 1 m aluybus [9] $end
$var wire 1 n aluybus [8] $end
$var wire 1 o aluybus [7] $end
$var wire 1 p aluybus [6] $end
$var wire 1 q aluybus [5] $end
$var wire 1 r aluybus [4] $end
$var wire 1 s aluybus [3] $end
$var wire 1 t aluybus [2] $end
$var wire 1 u aluybus [1] $end
$var wire 1 v aluybus [0] $end
$var wire 1 w cp [8] $end
$var wire 1 x cp [7] $end
$var wire 1 y cp [6] $end
$var wire 1 z cp [5] $end
$var wire 1 { cp [4] $end
$var wire 1 | cp [3] $end
$var wire 1 } cp [2] $end
$var wire 1 ~ cp [1] $end
$var wire 1 !! ibus [15] $end
$var wire 1 "! ibus [14] $end
$var wire 1 #! ibus [13] $end
$var wire 1 $! ibus [12] $end
$var wire 1 %! ibus [11] $end
$var wire 1 &! ibus [10] $end
$var wire 1 '! ibus [9] $end
$var wire 1 (! ibus [8] $end
$var wire 1 )! ibus [7] $end
$var wire 1 *! ibus [6] $end
$var wire 1 +! ibus [5] $end
$var wire 1 ,! ibus [4] $end
$var wire 1 -! ibus [3] $end
$var wire 1 .! ibus [2] $end
$var wire 1 /! ibus [1] $end
$var wire 1 0! ibus [0] $end
$var wor 1 1! accbus [15] $end
$var wor 1 2! accbus [14] $end
$var wor 1 3! accbus [13] $end
$var wor 1 4! accbus [12] $end
$var wor 1 5! accbus [11] $end
$var wor 1 6! accbus [10] $end
$var wor 1 7! accbus [9] $end
$var wor 1 8! accbus [8] $end
$var wor 1 9! accbus [7] $end
$var wor 1 :! accbus [6] $end
$var wor 1 ;! accbus [5] $end
$var wor 1 <! accbus [4] $end
$var wor 1 =! accbus [3] $end
$var wor 1 >! accbus [2] $end
$var wor 1 ?! accbus [1] $end
$var wor 1 @! accbus [0] $end
$var wor 1 A! estate $end
$var wor 1 B! sendpc $end
$var wor 1 C! writemar $end
$var wor 1 D! writeZ $end
$var wor 1 E! msend $end
$var wor 1 F! sendone $end
$var wor 1 G! writeY $end
$var wor 1 H! sendsum $end
$var wor 1 I! sendir $end
$var wor 1 J! sendbar $end
$var wor 1 K! sendand $end
$var wor 1 L! sendacc $end
$var wor 1 M! writepc $end
$var wor 1 N! writeir $end
$var wor 1 O! writeacc $end
$var wor 1 P! sendor $end
$var wor 1 Q! sendffff $end
$var wire 1 R! DTA $end
$var wire 1 S! ARITH $end
$var wire 1 T! REF $end
$var wire 1 U! mclear $end
$var wire 1 V! mwrite $end
$var wire 1 W! sendxor $end
$var wire 1 X! sendx2 $end
$var wire 1 Y! overflow $end
$var wire 1 Z! ihlt $end
$var wire 1 [! F $end
$var wire 1 \! E $end
$var wire 1 ]! ophlt $end
$var wire 1 ^! opadd $end
$var wire 1 _! opxor $end
$var wire 1 `! opand $end
$var wire 1 a! opior $end
$var wire 1 b! opnot $end
$var wire 1 c! oplda $end
$var wire 1 d! opsta $end
$var wire 1 e! opsrj $end
$var wire 1 f! opjma $end
$var wire 1 g! opjmp $end
$var wire 1 h! opinp $end
$var wire 1 i! opout $end
$var wire 1 j! opral $end
$var wire 1 k! opcsa $end
$var wire 1 l! opnop $end
$var wire 1 m! opinc $end
$var wire 1 n! opdec $end
$var wire 1 o! j3a $end
$var wire 1 p! j3b $end
$scope module ctl $end
$var wire 1 " clk $end
$var wire 1 # extstart $end
$var wire 1 $ extstop $end
$var wire 1 % extexam $end
$var wire 1 & extdeposit $end
$var wire 1 Z! ihlt $end
$var wire 1 Y! aluov $end
$var wire 1 A! statee $end
$var wire 1 ! extreset $end
$var wire 1 w cp [8] $end
$var wire 1 x cp [7] $end
$var wire 1 y cp [6] $end
$var wire 1 z cp [5] $end
$var wire 1 { cp [4] $end
$var wire 1 | cp [3] $end
$var wire 1 } cp [2] $end
$var wire 1 ~ cp [1] $end
$var wire 1 [! F $end
$var wire 1 \! E $end
$var wire 1 U! reset $end
$var reg 3 q! counter [2:0] $end
$var wire 1 r! xrun $end
$var wire 1 s! xexam $end
$var wire 1 t! xdep $end
$var wire 1 u! pstop $end
$var wire 1 v! cycle $end
$var wire 1 w! start $end
$var wire 1 x! stop $end
$var wire 1 y! exam $end
$var wire 1 z! deposit $end
$var wire 1 {! estate $end
$var wire 1 |! treset $end
$var wire 1 }! pende $end
$upscope $end
$upscope $end
$upscope $end
$enddefinitions $end
#0
$dumpvars
b0 q!
06
05
04
03
02
01
00
0/
0.
0-
0,
0+
0*
0)
0(
0'
zF
zE
zD
zC
zB
zA
z@
z?
z>
z=
z<
z;
z:
z9
z8
z7
0V
0U
0T
0S
0R
0Q
0P
0O
0N
0M
0L
0K
0J
0I
0H
0G
0f
0e
0d
0c
0b
0a
0`
0_
0^
0]
0\
0[
0Z
0Y
0X
0W
0v
0u
0t
0s
0r
0q
0p
0o
0n
0m
0l
0k
0j
0i
0h
0g
0~
0}
0|
0{
0z
0y
0x
0w
00!
0/!
0.!
0-!
0,!
0+!
0*!
0)!
0(!
0'!
0&!
0%!
0$!
0#!
0"!
0!!
0@!
0?!
0>!
0=!
0<!
0;!
0:!
09!
08!
07!
06!
05!
04!
03!
02!
01!
0A!
0B!
0C!
0D!
0E!
0F!
0G!
0H!
0I!
0J!
0K!
0L!
0M!
0N!
0O!
0P!
0Q!
0R!
0S!
0T!
xU!
0V!
0W!
0X!
0Y!
0Z!
0[!
0\!
1]!
0^!
0_!
0`!
0a!
0b!
0c!
0d!
0e!
0f!
0g!
0h!
0i!
0j!
0k!
0l!
0m!
0n!
0o!
0p!
0r!
0s!
0t!
0u!
0v!
xw!
xx!
xy!
xz!
0{!
x|!
0}!
0&
0%
0$
0#
0"
0!
$end
#2
1"
0|!
0z!
0y!
0x!
0w!
0U!
#4
0"
#5
1!
#6
1"
1|!
1U!
#8
0"
#10
1"
0!
0|!
0U!
#12
0"
#14
1"
#16
0"
#18
1"
#20
0"
1#
#22
1"
1w!
#24
0"
#26
1"
0w!
b111 q!
1r!
1[!
#28
0"
#30
1"
b0 q!
1v!
1~
1D!
1C!
1B!
0F
0E
0D
0C
0B
0A
0@
0?
0>
0=
0<
0;
0:
09
08
07
#32
0"
#34
1"
b1 q!
0~
1}
0D!
0C!
0B!
1G!
1F!
1F
#36
0"
#38
1"
b10 q!
0}
1|
1v
0G!
0F!
1M!
1H!
xY!
zF
zE
zD
zC
zB
zA
z@
z?
z>
z=
z<
z;
z:
z9
z8
z7
1F
0E
0D
0C
0B
0A
0@
0?
0>
0=
0<
0;
0:
09
08
07
0Y!
#40
0"
#42
1"
b11 q!
0|
1{
0M!
0H!
1N!
1E!
1C
19
18
0F
#44
0"
#46
1"
b100 q!
0{
1z
1-!
1#!
1"!
0N!
0E!
0]!
1c!
zF
zE
zD
zC
zB
zA
z@
z?
z>
z=
z<
z;
z:
z9
z8
z7
1R!
1T!
#48
0"
#50
1"
b101 q!
0z
1y
#52
0"
#54
1"
b110 q!
0y
1x
#56
0"
#58
1"
b111 q!
0x
1w
1A!
#60
0"
#62
1"
b0 q!
1~
0w
1{!
1}!
1D!
1C!
1B!
0A!
1\!
0[!
1F
0E
0D
0C
0B
0A
0@
0?
0>
0=
0<
0;
0:
09
08
07
1I!
0D!
0B!
0F
1C
19
18
#64
0"
#66
1"
b1 q!
0~
1}
0}!
1S
0C!
0I!
1D!
1L!
0C
09
08
#68
0"
#70
1"
b10 q!
0}
1|
0D!
0L!
zF
zE
zD
zC
zB
zA
z@
z?
z>
z=
z<
z;
z:
z9
z8
z7
#72
0"
#74
1"
b11 q!
0|
1{
#76
0"
#78
1"
b100 q!
0{
1z
#80
0"
#82
1"
b101 q!
0z
1y
1O!
1E!
0F
1E
0D
0C
1B
0A
0@
0?
0>
0=
0<
0;
0:
09
08
07
#84
0"
#86
1"
b110 q!
0y
1x
1?!
1<!
0O!
0E!
15
12
zF
zE
zD
zC
zB
zA
z@
z?
z>
z=
z<
z;
z:
z9
z8
z7
#88
0"
#90
1"
b111 q!
0x
1w
#92
0"
#94
1"
b0 q!
1~
0w
0{!
1C!
1I!
0\!
1[!
0F
0E
0D
1C
0B
0A
0@
0?
0>
0=
0<
0;
0:
19
18
07
0I!
1D!
1B!
1F
0C
09
08
#96
0"
#98
1"
b1 q!
0~
1}
1f
1V
0S
0D!
0C!
0B!
1G!
1F!
#100
0"
#102
1"
b10 q!
0}
1|
0G!
0F!
1M!
1H!
xY!
zF
zE
zD
zC
zB
zA
z@
z?
z>
z=
z<
z;
z:
z9
z8
z7
0F
1E
0D
0C
0B
0A
0@
0?
0>
0=
0<
0;
0:
09
08
07
0Y!
#104
0"
#106
1"
b11 q!
0|
1{
0M!
0H!
1N!
1E!
1F
1C
1:
0E
#108
0"
#110
1"
b100 q!
0{
1z
10!
1$!
0#!
0"!
0N!
0E!
1^!
0c!
zF
zE
zD
zC
zB
zA
z@
z?
z>
z=
z<
z;
z:
z9
z8
z7
0R!
1S!
1R!
0T!
1T!
#112
0"
#114
1"
b101 q!
0z
1y
#116
0"
#118
1"
b110 q!
0y
1x
#120
0"
#122
1"
b111 q!
0x
1w
1A!
#124
0"
#126
1"
b0 q!
1~
0w
1{!
1}!
1D!
1C!
1B!
0A!
1\!
0[!
0F
1E
0D
0C
0B
0A
0@
0?
0>
0=
0<
0;
0:
09
08
07
1I!
0D!
0B!
1F
0E
1C
1:
#128
0"
#130
1"
b1 q!
0~
1}
0}!
1S
0C!
0I!
1D!
1L!
0F
1E
0C
1B
0:
#132
0"
#134
1"
b10 q!
0}
1|
0f
1e
1b
0D!
0L!
zF
zE
zD
zC
zB
zA
z@
z?
z>
z=
z<
z;
z:
z9
z8
z7
#136
0"
#138
1"
b11 q!
0|
1{
#140
0"
#142
1"
b100 q!
0{
1z
#144
0"
#146
1"
b101 q!
0z
1y
1G!
1E!
0F
0E
1D
0C
0B
0A
0@
0?
0>
0=
0<
0;
0:
09
08
07
#148
0"
#150
1"
b110 q!
0y
1x
0v
1t
0G!
0E!
zF
zE
zD
zC
zB
zA
z@
z?
z>
z=
z<
z;
z:
z9
z8
z7
#152
0"
#154
1"
b111 q!
0x
1w
1O!
1H!
xY!
0F
1E
1D
0C
1B
0A
0@
0?
0>
0=
0<
0;
0:
09
08
07
0Y!
#156
0"
#158
1"
b0 q!
1~
0w
0{!
1>!
1C!
1I!
0O!
0H!
14
0\!
1[!
1F
1C
1:
0I!
1D!
1B!
0F
0C
0:
0D
0B
#160
0"
#162
1"
b1 q!
0~
1}
0b
0V
1U
0S
0D!
0C!
0B!
1G!
1F!
1F
0E
#164
0"
#166
1"
b10 q!
0}
1|
1v
0t
0G!
0F!
1M!
1H!
xY!
zF
zE
zD
zC
zB
zA
z@
z?
z>
z=
z<
z;
z:
z9
z8
z7
1F
1E
0D
0C
0B
0A
0@
0?
0>
0=
0<
0;
0:
09
08
07
0Y!
#168
0"
#170
1"
b11 q!
0|
1{
0M!
0H!
1N!
1E!
1C
19
0F
#172
0"
#174
1"
b100 q!
0{
1z
00!
1/!
0$!
1#!
0N!
0E!
0^!
1_!
zF
zE
zD
zC
zB
zA
z@
z?
z>
z=
z<
z;
z:
z9
z8
z7
#176
0"
#178
1"
b101 q!
0z
1y
#180
0"
#182
1"
b110 q!
0y
1x
#184
0"
#186
1"
b111 q!
0x
1w
1A!
#188
0"
#190
1"
b0 q!
1~
0w
1{!
1}!
1D!
1C!
1B!
0A!
1\!
0[!
1F
1E
0D
0C
0B
0A
0@
0?
0>
0=
0<
0;
0:
09
08
07
1I!
0D!
0B!
0F
1C
19
#192
0"
#194
1"
b1 q!
0~
1}
0}!
1S
0C!
0I!
1D!
1L!
1D
0C
1B
09
#196
0"
#198
1"
b10 q!
0}
1|
1d
1b
0D!
0L!
zF
zE
zD
zC
zB
zA
z@
z?
z>
z=
z<
z;
z:
z9
z8
z7
#200
0"
#202
1"
b11 q!
0|
1{
#204
0"
#206
1"
b100 q!
0{
1z
#208
0"
#210
1"
b101 q!
0z
1y
1G!
1E!
1F
1E
1D
1C
1B
1A
1@
1?
1>
1=
1<
1;
1:
19
18
17
#212
0"
#214
1"
b110 q!
0y
1x
1u
1t
1s
1r
1q
1p
1o
1n
1m
1l
1k
1j
1i
1h
1g
0G!
0E!
zF
zE
zD
zC
zB
zA
z@
z?
z>
z=
z<
z;
z:
z9
z8
z7
#216
0"
#218
1"
b111 q!
0x
1w
1O!
1W!
1F
0E
0D
1C
0B
1A
1@
1?
1>
1=
1<
1;
1:
19
18
17
#220
0"
#222
1"
b0 q!
1~
0w
0{!
1@!
0?!
0>!
1=!
0<!
1;!
1:!
19!
18!
17!
16!
15!
14!
13!
12!
11!
1C!
1I!
0O!
0W!
16
05
04
13
02
11
10
1/
1.
1-
1,
1+
1*
1)
1(
1'
0\!
1[!
1E
0I!
1D!
1B!
0C
0A
0@
0?
0>
0=
0<
0;
0:
09
08
07
#224
0"
#226
1"
b1 q!
0~
1}
1f
0d
0b
1V
0S
0D!
0C!
0B!
1G!
1F!
0E
#228
0"
#230
1"
b10 q!
0}
1|
0u
0t
0s
0r
0q
0p
0o
0n
0m
0l
0k
0j
0i
0h
0g
0G!
0F!
1M!
1H!
xY!
zF
zE
zD
zC
zB
zA
z@
z?
z>
z=
z<
z;
z:
z9
z8
z7
0F
0E
1D
0C
0B
0A
0@
0?
0>
0=
0<
0;
0:
09
08
07
0Y!
#232
0"
#234
1"
b11 q!
0|
1{
0M!
0H!
1N!
1E!
1E
0D
#236
0"
#238
1"
b100 q!
0{
1z
0-!
0#!
0N!
0E!
1b!
0_!
zF
zE
zD
zC
zB
zA
z@
z?
z>
z=
z<
z;
z:
z9
z8
z7
1D!
1L!
0S!
0R!
1F
0E
0D
1C
0B
1A
1@
1?
1>
1=
1<
1;
1:
19
18
17
0T!
#240
0"
#242
1"
b101 q!
0z
1y
0e
1c
1a
1`
1_
1^
1]
1\
1[
1Z
1Y
1X
1W
0D!
0L!
zF
zE
zD
zC
zB
zA
z@
z?
z>
z=
z<
z;
z:
z9
z8
z7
#244
0"
#246
1"
b110 q!
0y
1x
#248
0"
#250
1"
0#
b111 q!
0x
1w
1O!
1J!
0F
1E
1D
0C
1B
0A
0@
0?
0>
0=
0<
0;
0:
09
08
07
#252
0"
#254
1"
b0 q!
1~
0w
0@!
1?!
1>!
0=!
1<!
0;!
0:!
09!
08!
07!
06!
05!
04!
03!
02!
01!
1D!
1C!
1B!
0O!
0J!
06
15
14
03
12
01
00
0/
0.
0-
0,
0+
0*
0)
0(
0'
0E
0B
#256
0"
#258
1"
b1 q!
0~
1}
0f
1d
0c
0a
0`
0_
0^
0]
0\
0[
0Z
0Y
0X
0W
0V
0U
1T
0D!
0C!
0B!
1G!
1F!
1F
0D
#260
0"
#262
1"
b10 q!
0}
1|
0G!
0F!
1M!
1H!
xY!
zF
zE
zD
zC
zB
zA
z@
z?
z>
z=
z<
z;
z:
z9
z8
z7
1F
0E
1D
0C
0B
0A
0@
0?
0>
0=
0<
0;
0:
09
08
07
0Y!
#264
0"
#266
1"
b11 q!
0|
1{
0M!
0H!
1N!
1E!
#268
0"
#270
1"
b100 q!
0{
1z
10!
0/!
1.!
0N!
0E!
1D!
1L!
0b!
1m!
0F
1E
1B
#272
0"
#274
1"
b101 q!
0z
1y
1e
1b
0D!
0L!
zF
zE
zD
zC
zB
zA
z@
z?
z>
z=
z<
z;
z:
z9
z8
z7
#276
0"
#278
1"
b110 q!
0y
1x
#280
0"
#282
1"
b111 q!
0x
1w
1O!
1H!
xY!
1F
1E
1D
0C
1B
0A
0@
0?
0>
0=
0<
0;
0:
09
08
07
0Y!
#284
0"
#286
1"
b0 q!
1~
0w
1@!
1D!
1C!
1B!
0O!
0H!
16
0E
0B
#288
0"
#290
1"
b1 q!
0~
1}
1f
0e
0b
1V
0D!
0C!
0B!
1G!
1F!
0D
#292
0"
#294
1"
b10 q!
0}
1|
0G!
0F!
1M!
1H!
xY!
zF
zE
zD
zC
zB
zA
z@
z?
z>
z=
z<
z;
z:
z9
z8
z7
0F
1E
1D
0C
0B
0A
0@
0?
0>
0=
0<
0;
0:
09
08
07
0Y!
#296
0"
#298
1"
b11 q!
0|
1{
0M!
0H!
1N!
1E!
#300
0"
#302
1"
b100 q!
0{
1z
00!
1/!
0N!
0E!
1D!
1L!
0m!
1n!
1F
1B
#304
0"
#306
1"
b101 q!
0z
1y
1e
1b
0D!
0L!
zF
zE
zD
zC
zB
zA
z@
z?
z>
z=
z<
z;
z:
z9
z8
z7
#308
0"
#310
1"
b110 q!
0y
1x
1G!
1Q!
1F
1E
1D
1C
1B
1A
1@
1?
1>
1=
1<
1;
1:
19
18
17
#312
0"
#314
1"
b111 q!
0x
1w
1u
1t
1s
1r
1q
1p
1o
1n
1m
1l
1k
1j
1i
1h
1g
0G!
0Q!
1O!
1H!
zF
zE
zD
zC
zB
zA
z@
z?
z>
z=
z<
z;
z:
z9
z8
z7
0F
1E
1D
0C
1B
0A
0@
0?
0>
0=
0<
0;
0:
09
08
07
#316
0"
#318
1"
b0 q!
1~
0w
0@!
1D!
1C!
1B!
0O!
0H!
06
0B
#320
0"
#322
1"
b1 q!
0~
1}
0f
0b
0V
1U
0D!
0C!
0B!
1G!
1F!
1F
0E
0D
#324
0"
#326
1"
b10 q!
0}
1|
0u
0t
0s
0r
0q
0p
0o
0n
0m
0l
0k
0j
0i
0h
0g
0G!
0F!
1M!
1H!
xY!
zF
zE
zD
zC
zB
zA
z@
z?
z>
z=
z<
z;
z:
z9
z8
z7
1F
1E
1D
0C
0B
0A
0@
0?
0>
0=
0<
0;
0:
09
08
07
0Y!
#328
0"
#330
1"
b11 q!
0|
1{
0M!
0H!
1N!
1E!
1C
1:
19
18
0F
0E
0D
#332
0"
#334
1"
b100 q!
0{
1z
0/!
0.!
1-!
1$!
1#!
1"!
0N!
0E!
1D!
1L!
0n!
1d!
1E
1D
0C
1B
0:
09
08
0D!
0L!
1T!
zF
zE
zD
zC
zB
zA
z@
z?
z>
z=
z<
z;
z:
z9
z8
z7
#336
0"
#338
1"
b101 q!
0z
1y
#340
0"
#342
1"
b110 q!
0y
1x
#344
0"
#346
1"
b111 q!
0x
1w
1A!
#348
0"
#350
1"
b0 q!
1~
0w
1{!
1}!
1D!
1C!
1B!
0A!
1\!
0[!
1F
1E
1D
0C
0B
0A
0@
0?
0>
0=
0<
0;
0:
09
08
07
1I!
0D!
0B!
0F
0E
0D
1C
1:
19
18
#352
0"
#354
1"
b1 q!
0~
1}
0}!
0U
0T
1S
0C!
0I!
1D!
1L!
1E
1D
0C
1B
0:
09
08
#356
0"
#358
1"
b10 q!
0}
1|
1b
0D!
0L!
zF
zE
zD
zC
zB
zA
z@
z?
z>
z=
z<
z;
z:
z9
z8
z7
#360
0"
#362
1"
b11 q!
0|
1{
#364
0"
#366
1"
b100 q!
0{
1z
1V!
1L!
0F
1E
1D
0C
1B
0A
0@
0?
0>
0=
0<
0;
0:
09
08
07
#368
0"
#370
1"
b101 q!
0z
1y
0V!
0L!
zF
zE
zD
zC
zB
zA
z@
z?
z>
z=
z<
z;
z:
z9
z8
z7
#372
0"
#374
1"
b110 q!
0y
1x
#376
0"
#378
1"
b111 q!
0x
1w
#380
0"
#382
1"
b0 q!
1~
0w
0{!
1C!
1I!
0\!
1[!
0F
0E
0D
1C
0B
0A
0@
0?
0>
0=
0<
0;
1:
19
18
07
0I!
1D!
1B!
1F
1E
1D
0C
0:
09
08
#384
0"
#386
1"
b1 q!
0~
1}
1f
0b
1V
1U
1T
0S
0D!
0C!
0B!
1G!
1F!
0E
0D
#388
0"
#390
1"
b10 q!
0}
1|
0G!
0F!
1M!
1H!
xY!
zF
zE
zD
zC
zB
zA
z@
z?
z>
z=
z<
z;
z:
z9
z8
z7
0F
0E
0D
1C
0B
0A
0@
0?
0>
0=
0<
0;
0:
09
08
07
0Y!
#392
0"
#394
1"
b11 q!
0|
1{
0M!
0H!
1N!
1E!
19
17
0C
#396
0"
#398
1"
b100 q!
0{
1z
0-!
0$!
0"!
1!!
0N!
0E!
0d!
1g!
zF
zE
zD
zC
zB
zA
z@
z?
z>
z=
z<
z;
z:
z9
z8
z7
0T!
1p!
#400
0"
#402
1"
b101 q!
0z
1y
#404
0"
#406
1"
b110 q!
0y
1x
#408
0"
#410
1"
b111 q!
0x
1w
1M!
1I!
0F
0E
0D
0C
0B
0A
0@
0?
0>
0=
0<
0;
0:
19
08
17
#412
0"
#414
1"
b0 q!
1~
0w
1D!
1C!
1B!
0M!
0I!
09
07
#416
0"
#418
1"
b1 q!
0~
1}
0f
0e
0d
0V
0U
0T
0D!
0C!
0B!
1G!
1F!
1F
#420
0"
#422
1"
b10 q!
0}
1|
0G!
0F!
1M!
1H!
xY!
zF
zE
zD
zC
zB
zA
z@
z?
z>
z=
z<
z;
z:
z9
z8
z7
1F
0E
0D
0C
0B
0A
0@
0?
0>
0=
0<
0;
0:
09
08
07
0Y!
#424
0"
#426
1"
b11 q!
0|
1{
0M!
0H!
1N!
1E!
1C
19
18
0F
#428
0"
#430
1"
b100 q!
0{
1z
1-!
1"!
0!!
0N!
0E!
1c!
0g!
zF
zE
zD
zC
zB
zA
z@
z?
z>
z=
z<
z;
z:
z9
z8
z7
1R!
0p!
1T!
#432
0"
#434
1"
b101 q!
0z
1y
#436
0"
#438
1"
b110 q!
0y
1x
#440
0"
#442
1"
b111 q!
0x
1w
1A!
#444
0"
#446
1"
b0 q!
1~
0w
1{!
1}!
1D!
1C!
1B!
0A!
1\!
0[!
1F
0E
0D
0C
0B
0A
0@
0?
0>
0=
0<
0;
0:
09
08
07
1I!
0D!
0B!
0F
1C
19
18
#448
0"
#450
1"
b1 q!
0~
1}
0}!
1S
0C!
0I!
1D!
1L!
1E
1D
0C
1B
09
08
#452
0"
#454
1"
b10 q!
0}
1|
1e
1d
1b
0D!
0L!
zF
zE
zD
zC
zB
zA
z@
z?
z>
z=
z<
z;
z:
z9
z8
z7
#456
0"
#458
1"
b11 q!
0|
1{
#460
0"
#462
1"
b100 q!
0{
1z
#464
0"
#466
1"
b101 q!
0z
1y
1O!
1E!
0F
1E
1D
0C
1B
0A
0@
0?
0>
0=
0<
0;
0:
09
08
07
#468
0"
#470
1"
b110 q!
0y
1x
0O!
0E!
zF
zE
zD
zC
zB
zA
z@
z?
z>
z=
z<
z;
z:
z9
z8
z7
#472
0"
#474
1"
b111 q!
0x
1w
#476
0"
#478
1"
b0 q!
1~
0w
0{!
1C!
1I!
0\!
1[!
0F
0E
0D
1C
0B
0A
0@
0?
0>
0=
0<
0;
0:
19
18
07
0I!
1D!
1B!
1F
0C
09
08
#480
0"
#482
1"
b1 q!
0~
1}
1f
0e
0d
0b
1V
0S
0D!
0C!
0B!
1G!
1F!
#484
0"
#486
1"
b10 q!
0}
1|
0G!
0F!
1M!
1H!
xY!
zF
zE
zD
zC
zB
zA
z@
z?
z>
z=
z<
z;
z:
z9
z8
z7
0F
1E
0D
0C
0B
0A
0@
0?
0>
0=
0<
0;
0:
09
08
07
0Y!
#488
0"
#490
1"
b11 q!
0|
1{
0M!
0H!
1N!
1E!
1F
1C
1:
0E
#492
0"
#494
1"
b100 q!
0{
1z
10!
1$!
0#!
0"!
0N!
0E!
1^!
0c!
zF
zE
zD
zC
zB
zA
z@
z?
z>
z=
z<
z;
z:
z9
z8
z7
0R!
1S!
1R!
0T!
1T!
#496
0"
#498
1"
b101 q!
0z
1y
#500
0"
#502
1"
b110 q!
0y
1x
#504
0"
#506
1"
b111 q!
0x
1w
1A!
#508
0"
#510
1"
b0 q!
1~
0w
1{!
1}!
1D!
1C!
1B!
0A!
1\!
0[!
0F
1E
0D
0C
0B
0A
0@
0?
0>
0=
0<
0;
0:
09
08
07
1I!
0D!
0B!
1F
0E
1C
1:
#512
0"
#514
1"
b1 q!
0~
1}
0}!
1S
0C!
0I!
1D!
1L!
0F
1E
1D
0C
1B
0:
#516
0"
#518
1"
b10 q!
0}
1|
0f
1e
1d
1b
0D!
0L!
zF
zE
zD
zC
zB
zA
z@
z?
z>
z=
z<
z;
z:
z9
z8
z7
#520
0"
#522
1"
b11 q!
0|
1{
#524
0"
#526
1"
b100 q!
0{
1z
#528
0"
#530
1"
b101 q!
0z
1y
1G!
1E!
0F
0E
1D
0C
0B
0A
0@
0?
0>
0=
0<
0;
0:
09
08
07
#532
0"
#534
1"
b110 q!
0y
1x
0v
1t
0G!
0E!
zF
zE
zD
zC
zB
zA
z@
z?
z>
z=
z<
z;
z:
z9
z8
z7
#536
0"
#538
1"
b111 q!
0x
1w
1O!
1H!
xY!
0F
1E
0D
1C
1B
0A
0@
0?
0>
0=
0<
0;
0:
09
08
07
0Y!
#540
0"
#542
1"
b0 q!
1~
0w
0{!
0>!
1=!
1C!
1I!
0O!
0H!
04
13
0\!
1[!
1F
1:
0I!
1D!
1B!
0F
0:
0C
0B
#544
0"
#546
1"
b1 q!
0~
1}
0d
0b
0V
1U
0S
0D!
0C!
0B!
1G!
1F!
1F
0E
#548
0"
#550
1"
b10 q!
0}
1|
1v
0t
0G!
0F!
1M!
1H!
xY!
zF
zE
zD
zC
zB
zA
z@
z?
z>
z=
z<
z;
z:
z9
z8
z7
1F
1E
0D
0C
0B
0A
0@
0?
0>
0=
0<
0;
0:
09
08
07
0Y!
#552
0"
#554
1"
b11 q!
0|
1{
0M!
0H!
1N!
1E!
1C
19
0F
#556
0"
#558
1"
b100 q!
0{
1z
00!
1/!
0$!
1#!
0N!
0E!
0^!
1_!
zF
zE
zD
zC
zB
zA
z@
z?
z>
z=
z<
z;
z:
z9
z8
z7
#560
0"
#562
1"
b101 q!
0z
1y
#564
0"
#566
1"
b110 q!
0y
1x
#568
0"
#570
1"
b111 q!
0x
1w
1A!
#572
0"
#574
1"
b0 q!
1~
0w
1{!
1}!
1D!
1C!
1B!
0A!
1\!
0[!
1F
1E
0D
0C
0B
0A
0@
0?
0>
0=
0<
0;
0:
09
08
07
1I!
0D!
0B!
0F
1C
19
#576
0"
#578
1"
b1 q!
0~
1}
0}!
1S
0C!
0I!
1D!
1L!
1B
09
#580
0"
#582
1"
b10 q!
0}
1|
1c
1b
0D!
0L!
zF
zE
zD
zC
zB
zA
z@
z?
z>
z=
z<
z;
z:
z9
z8
z7
#584
0"
#586
1"
b11 q!
0|
1{
#588
0"
#590
1"
b100 q!
0{
1z
#592
0"
#594
1"
b101 q!
0z
1y
1G!
1E!
1F
1E
1D
1C
1B
1A
1@
1?
1>
1=
1<
1;
1:
19
18
17
#596
0"
#598
1"
b110 q!
0y
1x
1u
1t
1s
1r
1q
1p
1o
1n
1m
1l
1k
1j
1i
1h
1g
0G!
0E!
zF
zE
zD
zC
zB
zA
z@
z?
z>
z=
z<
z;
z:
z9
z8
z7
#600
0"
#602
1"
b111 q!
0x
1w
1O!
1W!
1F
0E
1D
0C
0B
1A
1@
1?
1>
1=
1<
1;
1:
19
18
17
#604
0"
