bench/dmmix.vcd
$timescale 1ns $end
$scope module fm $end
$var wire 1 % clk $end
$var wire 12 B trian $end
$var wire 12 # squar $end
$upscope $end
$enddefinitions $end
#0
b000000000000 B
b000000000000 #
b0 %
#1
b000000000000 B
b000000000000 #
b1 %
#2
b000000000000 B
b000000000000 #
b0 %
#3
b000000000000 B
b000000000000 #
b1 %
#4
b000000000000 B
b000000000000 #
b0 %
#5
b000000000000 B
b000000000000 #
b1 %
#6
b000000000000 B
b000000000000 #
b0 %
#7
b000000000000 B
b000000000000 #
b1 %
#8
b000000000000 B
b000000000000 #
b0 %
#9
b000000000000 B
b000000000000 #
b1 %
#10
b000000000011 B
b000000000011 #
b0 %
#11
b000000000011 B
b000000000011 #
b1 %
#12
b000000001001 B
b000000001001 #
b0 %
#13
b000000001001 B
b000000001001 #
b1 %
#14
b000000010000 B
b000000010000 #
b0 %
#15
b000000010000 B
b000000010000 #
b1 %
#16
b000000010110 B
b000000010110 #
b0 %
#17
b000000010110 B
b000000010110 #
b1 %
#18
b000000011100 B
b000000011100 #
b0 %
#19
b000000011100 B
b000000011100 #
b1 %
#20
b000000100011 B
b000000100011 #
b0 %
#21
b000000100011 B
b000000100011 #
b1 %
#22
b000000101011 B
b000000101100 #
b0 %
#23
b000000101011 B
b000000101100 #
b1 %
#24
b000000110111 B
b000000111000 #
b0 %
#25
b000000110111 B
b000000111000 #
b1 %
#26
b000001000110 B
b000001000111 #
b0 %
#27
b000001000110 B
b000001000111 #
b1 %
#28
b000001010110 B
b000001011000 #
b0 %
#29
b000001010110 B
b000001011000 #
b1 %
#30
b000001100111 B
b000001101000 #
b0 %
#31
b000001100111 B
b000001101000 #
b1 %
#32
b000001110110 B
b000001111000 #
b0 %
#33
b000001110110 B
b000001111000 #
b1 %
#34
b000010000100 B
b000010000111 #
b0 %
#35
b000010000100 B
b000010000111 #
b1 %
#36
b000010010011 B
b000010010110 #
b0 %
#37
b000010010011 B
b000010010110 #
b1 %
#38
b000010100011 B
b000010100110 #
b0 %
#39
b000010100011 B
b000010100110 #
b1 %
#40
b000010110110 B
b000010111010 #
b0 %
#41
b000010110110 B
b000010111010 #
b1 %
#42
b000011000111 B
b000011001100 #
b0 %
#43
b000011000111 B
b000011001100 #
b1 %
#44
b000011010111 B
b000011011101 #
b0 %
#45
b000011010111 B
b000011011101 #
b1 %
#46
b000011100110 B
b000011101101 #
b0 %
#47
b000011100110 B
b000011101101 #
b1 %
#48
b000011110011 B
b000011111011 #
b0 %
#49
b000011110011 B
b000011111011 #
b1 %
#50
b000100000000 B
b000100001000 #
b0 %
#51
b000100000000 B
b000100001000 #
b1 %
#52
b000100001011 B
b000100010101 #
b0 %
#53
b000100001011 B
b000100010101 #
b1 %
#54
b000100010110 B
b000100100010 #
b0 %
#55
b000100010110 B
b000100100010 #
b1 %
#56
b000100100001 B
b000100101101 #
b0 %
#57
b000100100001 B
b000100101101 #
b1 %
#58
b000100101010 B
b000100111000 #
b0 %
#59
b000100101010 B
b000100111000 #
b1 %
#60
b000100110010 B
b000101000001 #
b0 %
#61
b000100110010 B
b000101000001 #
b1 %
#62
b000100111001 B
b000101001001 #
b0 %
#63
b000100111001 B
b000101001001 #
b1 %
#64
b000100111111 B
b000101010001 #
b0 %
#65
b000100111111 B
b000101010001 #
b1 %
#66
b000101000100 B
b000101011000 #
b0 %
#67
b000101000100 B
b000101011000 #
b1 %
#68
b000101001001 B
b000101011111 #
b0 %
#69
b000101001001 B
b000101011111 #
b1 %
#70
b000101001110 B
b000101100110 #
b0 %
#71
b000101001110 B
b000101100110 #
b1 %
#72
b000101010011 B
b000101101100 #
b0 %
#73
b000101010011 B
b000101101100 #
b1 %
#74
b000101010110 B
b000101110010 #
b0 %
#75
b000101010110 B
b000101110010 #
b1 %
#76
b000101011001 B
b000101110110 #
b0 %
#77
b000101011001 B
b000101110110 #
b1 %
#78
b000101011010 B
b000101111001 #
b0 %
#79
b000101011010 B
b000101111001 #
b1 %
#80
b000101011011 B
b000101111100 #
b0 %
#81
b000101011011 B
b000101111100 #
b1 %
#82
b000101011100 B
b000101111110 #
b0 %
#83
b000101011100 B
b000101111110 #
b1 %
#84
b000101011101 B
b000110000001 #
b0 %
#85
b000101011101 B
b000110000001 #
b1 %
#86
b000101011101 B
b000110000101 #
b0 %
#87
b000101011101 B
b000110000101 #
b1 %
#88
b000101011101 B
b000110000111 #
b0 %
#89
b000101011101 B
b000110000111 #
b1 %
#90
b000101011101 B
b000110001001 #
b0 %
#91
b000101011101 B
b000110001001 #
b1 %
#92
b000101011011 B
b000110001001 #
b0 %
#93
b000101011011 B
b000110001001 #
b1 %
#94
b000101011001 B
b000110001001 #
b0 %
#95
b000101011001 B
b000110001001 #
b1 %
#96
b000101010110 B
b000110001000 #
b0 %
#97
b000101010110 B
b000110001000 #
b1 %
#98
b000101010011 B
b000110001000 #
b0 %
#99
b000101010011 B
b000110001000 #
b1 %
#100
b000101010001 B
b000110001000 #
b0 %
#101
b000101010001 B
b000110001000 #
b1 %
#102
b000101001110 B
b000110001000 #
b0 %
#103
b000101001110 B
b000110001000 #
b1 %
#104
b000101001011 B
b000110001000 #
b0 %
#105
b000101001011 B
b000110001000 #
b1 %
#106
b000101000111 B
b000110000110 #
b0 %
#107
b000101000111 B
b000110000110 #
b1 %
#108
b000101000011 B
b000110000100 #
b0 %
#109
b000101000011 B
b000110000100 #
b1 %
#110
b000100111110 B
b000110000001 #
b0 %
#111
b000100111110 B
b000110000001 #
b1 %
#112
b000100111001 B
b000101111111 #
b0 %
#113
b000100111001 B
b000101111111 #
b1 %
#114
b000100110101 B
b000101111101 #
b0 %
#115
b000100110101 B
b000101111101 #
b1 %
#116
b000100110000 B
b000101111011 #
b0 %
#117
b000100110000 B
b000101111011 #
b1 %
#118
b000100101011 B
b000101111001 #
b0 %
#119
b000100101011 B
b000101111001 #
b1 %
#120
b000100100111 B
b000101110111 #
b0 %
#121
b000100100111 B
b000101110111 #
b1 %
#122
b000100100001 B
b000101110100 #
b0 %
#123
b000100100001 B
b000101110100 #
b1 %
#124
b000100011100 B
b000101110000 #
b0 %
#125
b000100011100 B
b000101110000 #
b1 %
#126
b000100010101 B
b000101101100 #
b0 %
#127
b000100010101 B
b000101101100 #
b1 %
#128
b000100001111 B
b000101101000 #
b0 %
#129
b000100001111 B
b000101101000 #
b1 %
#130
b000100001001 B
b000101100101 #
b0 %
#131
b000100001001 B
b000101100101 #
b1 %
#132
b000100000011 B
b000101100010 #
b0 %
#133
b000100000011 B
b000101100010 #
b1 %
#134
b000011111110 B
b000101011111 #
b0 %
#135
b000011111110 B
b000101011111 #
b1 %
#136
b000011111000 B
b000101011100 #
b0 %
#137
b000011111000 B
b000101011100 #
b1 %
#138
b000011110010 B
b000101010111 #
b0 %
#139
b000011110010 B
b000101010111 #
b1 %
#140
b000011101011 B
b000101010011 #
b0 %
#141
b000011101011 B
b000101010011 #
b1 %
#142
b000011100101 B
b000101001110 #
b0 %
#143
b000011100101 B
b000101001110 #
b1 %
#144
b000011011110 B
b000101001001 #
b0 %
#145
b000011011110 B
b000101001001 #
b1 %
#146
b000011011000 B
b000101000101 #
b0 %
#147
b000011011000 B
b000101000101 #
b1 %
#148
b000011010010 B
b000101000001 #
b0 %
#149
b000011010010 B
b000101000001 #
b1 %
#150
b000011001100 B
b000100111101 #
b0 %
#151
b000011001100 B
b000100111101 #
b1 %
#152
b000011000110 B
b000100111001 #
b0 %
#153
b000011000110 B
b000100111001 #
b1 %
#154
b000011000000 B
b000100110100 #
b0 %
#155
b000011000000 B
b000100110100 #
b1 %
#156
b000010111010 B
b000100101111 #
b0 %
#157
b000010111010 B
b000100101111 #
b1 %
#158
b000010110011 B
b000100101001 #
b0 %
#159
b000010110011 B
b000100101001 #
b1 %
#160
b000010101101 B
b000100100100 #
b0 %
#161
b000010101101 B
b000100100100 #
b1 %
#162
b000010100111 B
b000100100000 #
b0 %
#163
b000010100111 B
b000100100000 #
b1 %
#164
b000010100001 B
b000100011100 #
b0 %
#165
b000010100001 B
b000100011100 #
b1 %
#166
b000010011011 B
b000100011000 #
b0 %
#167
b000010011011 B
b000100011000 #
b1 %
#168
b000010010110 B
b000100010011 #
b0 %
#169
b000010010110 B
b000100010011 #
b1 %
#170
b000010010000 B
b000100001110 #
b0 %
#171
b000010010000 B
b000100001110 #
b1 %
#172
b000010001010 B
b000100001000 #
b0 %
#173
b000010001010 B
b000100001000 #
b1 %
#174
b000010000100 B
b000100000011 #
b0 %
#175
b000010000100 B
b000100000011 #
b1 %
#176
b000001111110 B
b000011111110 #
b0 %
#177
b000001111110 B
b000011111110 #
b1 %
#178
b000001111000 B
b000011111010 #
b0 %
#179
b000001111000 B
b000011111010 #
b1 %
#180
b000001110011 B
b000011110110 #
b0 %
#181
b000001110011 B
b000011110110 #
b1 %
#182
b000001101110 B
b000011110010 #
b0 %
#183
b000001101110 B
b000011110010 #
b1 %
#184
b000001101001 B
b000011101101 #
b0 %
#185
b000001101001 B
b000011101101 #
b1 %
#186
b000001100100 B
b000011101000 #
b0 %
#187
b000001100100 B
b000011101000 #
b1 %
#188
b000001011110 B
b000011100011 #
b0 %
#189
b000001011110 B
b000011100011 #
b1 %
#190
b000001011001 B
b000011011110 #
b0 %
#191
b000001011001 B
b000011011110 #
b1 %
#192
b000001010100 B
b000011011001 #
b0 %
#193
b000001010100 B
b000011011001 #
b1 %
#194
b000001001111 B
b000011010101 #
b0 %
#195
b000001001111 B
b000011010101 #
b1 %
#196
b000001001011 B
b000011010010 #
b0 %
#197
b000001001011 B
b000011010010 #
b1 %
#198
b000001000111 B
b000011001110 #
b0 %
#199
b000001000111 B
b000011001110 #
b1 %
#200
b000001000011 B
b000011001001 #
b0 %
#201
b000001000011 B
b000011001001 #
b1 %
#202
b000000111111 B
b000011000101 #
b0 %
#203
b000000111111 B
b000011000101 #
b1 %
#204
b000000111010 B
b000011000000 #
b0 %
#205
b000000111010 B
b000011000000 #
b1 %
#206
b000000110111 B
b000010111100 #
b0 %
#207
b000000110111 B
b000010111100 #
b1 %
#208
b000000110011 B
b000010111000 #
b0 %
#209
b000000110011 B
b000010111000 #
b1 %
#210
b000000101111 B
b000010110101 #
b0 %
#211
b000000101111 B
b000010110101 #
b1 %
#212
b000000101100 B
b000010110010 #
b0 %
#213
b000000101100 B
b000010110010 #
b1 %
#214
b000000101001 B
b000010101111 #
b0 %
#215
b000000101001 B
b000010101111 #
b1 %
#216
b000000100110 B
b000010101100 #
b0 %
#217
b000000100110 B
b000010101100 #
b1 %
#218
b000000100011 B
b000010101000 #
b0 %
#219
b000000100011 B
b000010101000 #
b1 %
#220
b000000100000 B
b000010100100 #
b0 %
#221
b000000100000 B
b000010100100 #
b1 %
#222
b000000011110 B
b000010100001 #
b0 %
#223
b000000011110 B
b000010100001 #
b1 %
#224
b000000011011 B
b000010011110 #
b0 %
#225
b000000011011 B
b000010011110 #
b1 %
#226
b000000011001 B
b000010011011 #
b0 %
#227
b000000011001 B
b000010011011 #
b1 %
#228
b000000010110 B
b000010011001 #
b0 %
#229
b000000010110 B
b000010011001 #
b1 %
#230
b000000010100 B
b000010010110 #
b0 %
#231
b000000010100 B
b000010010110 #
b1 %
#232
b000000010010 B
b000010010011 #
b0 %
#233
b000000010010 B
b000010010011 #
b1 %
#234
b000000010000 B
b000010010000 #
b0 %
#235
b000000010000 B
b000010010000 #
b1 %
#236
b000000001110 B
b000010001100 #
b0 %
#237
b000000001110 B
b000010001100 #
b1 %
#238
b000000001100 B
b000010001010 #
b0 %
#239
b000000001100 B
b000010001010 #
b1 %
#240
b000000001010 B
b000010000111 #
b0 %
#241
b000000001010 B
b000010000111 #
b1 %
#242
b000000001001 B
b000010000101 #
b0 %
#243
b000000001001 B
b000010000101 #
b1 %
#244
b000000000111 B
b000010000011 #
b0 %
#245
b000000000111 B
b000010000011 #
b1 %
#246
b000000000101 B
b000010000000 #
b0 %
#247
b000000000101 B
b000010000000 #
b1 %
#248
b000000000100 B
b000001111110 #
b0 %
#249
b000000000100 B
b000001111110 #
b1 %
#250
b000000000010 B
b000001111011 #
b0 %
#251
b000000000010 B
b000001111011 #
b1 %
#252
b000000000001 B
b000001111000 #
b0 %
#253
b000000000001 B
b000001111000 #
b1 %
#254
b000000000000 B
b000001110101 #
b0 %
#255
b000000000000 B
b000001110101 #
b1 %
#256
b111111111110 B
b000001110011 #
b0 %
#257
b111111111110 B
b000001110011 #
b1 %
#258
b111111111101 B
b000001110010 #
b0 %
#259
b111111111101 B
b000001110010 #
b1 %
#260
b111111111100 B
b000001110000 #
b0 %
#261
b111111111100 B
b000001110000 #
b1 %
#262
b111111111011 B
b000001101110 #
b0 %
#263
b111111111011 B
b000001101110 #
b1 %
#264
b111111111010 B
b000001101100 #
b0 %
#265
b111111111010 B
b000001101100 #
b1 %
#266
b111111111001 B
b000001101010 #
b0 %
#267
b111111111001 B
b000001101010 #
b1 %
#268
b111111111001 B
b000001101000 #
b0 %
#269
b111111111001 B
b000001101000 #
b1 %
#270
b111111111000 B
b000001100110 #
b0 %
#271
b111111111000 B
b000001100110 #
b1 %
#272
b111111110111 B
b000001100100 #
b0 %
#273
b111111110111 B
b000001100100 #
b1 %
#274
b111111110111 B
b000001100011 #
b0 %
#275
b111111110111 B
b000001100011 #
b1 %
#276
b111111110110 B
b000001100010 #
b0 %
#277
b111111110110 B
b000001100010 #
b1 %
#278
b111111110110 B
b000001100001 #
b0 %
#279
b111111110110 B
b000001100001 #
b1 %
#280
b111111110110 B
b000001011111 #
b0 %
#281
b111111110110 B
b000001011111 #
b1 %
#282
b111111110110 B
b000001011101 #
b0 %
#283
b111111110110 B
b000001011101 #
b1 %
#284
b111111110101 B
b000001011100 #
b0 %
#285
b111111110101 B
b000001011100 #
b1 %
#286
b111111110101 B
b000001011011 #
b0 %
#287
b111111110101 B
b000001011011 #
b1 %
#288
b111111110101 B
b000001011010 #
b0 %
#289
b111111110101 B
b000001011010 #
b1 %
#290
b111111110101 B
b000001011001 #
b0 %
#291
b111111110101 B
b000001011001 #
b1 %
#292
b111111110110 B
b000001011001 #
b0 %
#293
b111111110110 B
b000001011001 #
b1 %
#294
b111111110110 B
b000001011000 #
b0 %
#295
b111111110110 B
b000001011000 #
b1 %
#296
b111111110110 B
b000001010111 #
b0 %
#297
b111111110110 B
b000001010111 #
b1 %
#298
b111111110110 B
b000001010110 #
b0 %
#299
b111111110110 B
b000001010110 #
b1 %
#300
b111111110111 B
b000001010101 #
b0 %
#301
b111111110111 B
b000001010101 #
b1 %
#302
b111111110111 B
b000001010100 #
b0 %
#303
b111111110111 B
b000001010100 #
b1 %
#304
b111111110111 B
b000001010100 #
b0 %
#305
b111111110111 B
b000001010100 #
b1 %
#306
b111111111000 B
b000001010011 #
b0 %
#307
b111111111000 B
b000001010011 #
b1 %
#308
b111111111000 B
b000001010011 #
b0 %
#309
b111111111000 B
b000001010011 #
b1 %
#310
b111111111001 B
b000001010011 #
b0 %
#311
b111111111001 B
b000001010011 #
b1 %
#312
b111111111001 B
b000001010010 #
b0 %
#313
b111111111001 B
b000001010010 #
b1 %
#314
b111111111010 B
b000001010001 #
b0 %
#315
b111111111010 B
b000001010001 #
b1 %
#316
b111111111010 B
b000001010000 #
b0 %
#317
b111111111010 B
b000001010000 #
b1 %
#318
b111111111010 B
b000001010000 #
b0 %
#319
b111111111010 B
b000001010000 #
b1 %
#320
b111111111011 B
b000001010000 #
b0 %
#321
b111111111011 B
b000001010000 #
b1 %
#322
b111111111100 B
b000001010000 #
b0 %
#323
b111111111100 B
b000001010000 #
b1 %
#324
b111111111100 B
b000001001111 #
b0 %
#325
b111111111100 B
b000001001111 #
b1 %
#326
b111111111101 B
b000001001111 #
b0 %
#327
b111111111101 B
b000001001111 #
b1 %
#328
b111111111110 B
b000001001110 #
b0 %
#329
b111111111110 B
b000001001110 #
b1 %
#330
b111111111111 B
b000001001110 #
b0 %
#331
b111111111111 B
b000001001110 #
b1 %
#332
b000000000000 B
b000001001101 #
b0 %
#333
b000000000000 B
b000001001101 #
b1 %
#334
b000000000000 B
b000001001101 #
b0 %
#335
b000000000000 B
b000001001101 #
b1 %
#336
b000000000001 B
b000001001101 #
b0 %
#337
b000000000001 B
b000001001101 #
b1 %
#338
b000000000010 B
b000001001101 #
b0 %
#339
b000000000010 B
b000001001101 #
b1 %
#340
b000000000011 B
b000001001101 #
b0 %
#341
b000000000011 B
b000001001101 #
b1 %
#342
b000000000100 B
b000001001100 #
b0 %
#343
b000000000100 B
b000001001100 #
b1 %
#344
b000000000101 B
b000001001100 #
b0 %
#345
b000000000101 B
b000001001100 #
b1 %
#346
b000000000110 B
b000001001011 #
b0 %
#347
b000000000110 B
b000001001011 #
b1 %
#348
b000000000111 B
b000001001011 #
b0 %
#349
b000000000111 B
b000001001011 #
b1 %
#350
b000000001000 B
b000001001011 #
b0 %
#351
b000000001000 B
b000001001011 #
b1 %
#352
b000000001001 B
b000001001011 #
b0 %
#353
b000000001001 B
b000001001011 #
b1 %
#354
b000000001010 B
b000001001011 #
b0 %
#355
b000000001010 B
b000001001011 #
b1 %
#356
b000000001011 B
b000001001011 #
b0 %
#357
b000000001011 B
b000001001011 #
b1 %
#358
b000000001100 B
b000001001011 #
b0 %
#359
b000000001100 B
b000001001011 #
b1 %
#360
b000000001101 B
b000001001011 #
b0 %
#361
b000000001101 B
b000001001011 #
b1 %
#362
b000000001110 B
b000001001010 #
b0 %
#363
b000000001110 B
b000001001010 #
b1 %
#364
b000000001111 B
b000001001010 #
b0 %
#365
b000000001111 B
b000001001010 #
b1 %
#366
b000000010000 B
b000001001010 #
b0 %
#367
b000000010000 B
b000001001010 #
b1 %
#368
b000000010001 B
b000001001010 #
b0 %
#369
b000000010001 B
b000001001010 #
b1 %
#370
b000000010010 B
b000001001010 #
b0 %
#371
b000000010010 B
b000001001010 #
b1 %
#372
b000000010011 B
b000001001010 #
b0 %
#373
b000000010011 B
b000001001010 #
b1 %
#374
b000000010100 B
b000001001010 #
b0 %
#375
b000000010100 B
b000001001010 #
b1 %
#376
b000000010110 B
b000001001010 #
b0 %
#377
b000000010110 B
b000001001010 #
b1 %
#378
b000000010111 B
b000001001010 #
b0 %
#379
b000000010111 B
b000001001010 #
b1 %
#380
b000000011000 B
b000001001001 #
b0 %
#381
b000000011000 B
b000001001001 #
b1 %
#382
b000000011001 B
b000001001001 #
b0 %
#383
b000000011001 B
b000001001001 #
b1 %
#384
b000000011010 B
b000001001010 #
b0 %
#385
b000000011010 B
b000001001010 #
b1 %
#386
b000000011011 B
b000001001010 #
b0 %
#387
b000000011011 B
b000001001010 #
b1 %
#388
b000000011100 B
b000001001010 #
b0 %
#389
b000000011100 B
b000001001010 #
b1 %
#390
b000000011101 B
b000001001010 #
b0 %
#391
b000000011101 B
b000001001010 #
b1 %
#392
b000000011111 B
b000001001010 #
b0 %
#393
b000000011111 B
b000001001010 #
b1 %
#394
b000000100000 B
b000001001010 #
b0 %
#395
b000000100000 B
b000001001010 #
b1 %
#396
b000000100000 B
b000001001001 #
b0 %
#397
b000000100000 B
b000001001001 #
b1 %
#398
b000000100001 B
b000001001010 #
b0 %
#399
b000000100001 B
b000001001010 #
b1 %
#400
b000000100010 B
b000001001010 #
b0 %
#401
b000000100010 B
b000001001010 #
b1 %
#402
b000000100011 B
b000001001010 #
b0 %
#403
b000000100011 B
b000001001010 #
b1 %
#404
b000000100101 B
b000001001011 #
b0 %
#405
b000000100101 B
b000001001011 #
b1 %
#406
b000000100110 B
b000001001011 #
b0 %
#407
b000000100110 B
b000001001011 #
b1 %
#408
b000000100111 B
b000001001010 #
b0 %
#409
b000000100111 B
b000001001010 #
b1 %
#410
b000000101000 B
b000001001010 #
b0 %
#411
b000000101000 B
b000001001010 #
b1 %
#412
b000000101001 B
b000001001010 #
b0 %
#413
b000000101001 B
b000001001010 #
b1 %
#414
b000000101010 B
b000001001010 #
b0 %
#415
b000000101010 B
b000001001010 #
b1 %
#416
b000000101011 B
b000001001011 #
b0 %
#417
b000000101011 B
b000001001011 #
b1 %
#418
b000000101100 B
b000001001011 #
b0 %
#419
b000000101100 B
b000001001011 #
b1 %
#420
b000000101101 B
b000001001011 #
b0 %
#421
b000000101101 B
b000001001011 #
b1 %
#422
b000000101111 B
b000001001011 #
b0 %
#423
b000000101111 B
b000001001011 #
b1 %
#424
b000000110000 B
b000001001011 #
b0 %
#425
b000000110000 B
b000001001011 #
b1 %
#426
b000000110001 B
b000001001010 #
b0 %
#427
b000000110001 B
b000001001010 #
b1 %
#428
b000000110001 B
b000001001010 #
b0 %
#429
b000000110001 B
b000001001010 #
b1 %
#430
b000000110010 B
b000001001001 #
b0 %
#431
b000000110010 B
b000001001001 #
b1 %
#432
b000000110011 B
b000001001001 #
b0 %
#433
b000000110011 B
b000001001001 #
b1 %
#434
b000000110100 B
b000001001000 #
b0 %
#435
b000000110100 B
b000001001000 #
b1 %
#436
b000000110101 B
b000001001000 #
b0 %
#437
b000000110101 B
b000001001000 #
b1 %
#438
b000000110110 B
b000001000111 #
b0 %
#439
b000000110110 B
b000001000111 #
b1 %
#440
b000000110111 B
b000001000110 #
b0 %
#441
b000000110111 B
b000001000110 #
b1 %
#442
b000000111000 B
b000001000101 #
b0 %
#443
b000000111000 B
b000001000101 #
b1 %
#444
b000000111000 B
b000001000011 #
b0 %
#445
b000000111000 B
b000001000011 #
b1 %
#446
b000000111001 B
b000001000010 #
b0 %
#447
b000000111001 B
b000001000010 #
b1 %
#448
b000000111010 B
b000001000000 #
b0 %
#449
b000000111010 B
b000001000000 #
b1 %
#450
b000000111010 B
b000000111110 #
b0 %
#451
b000000111010 B
b000000111110 #
b1 %
#452
b000000111011 B
b000000111100 #
b0 %
#453
b000000111011 B
b000000111100 #
b1 %
#454
b000000111100 B
b000000111011 #
b0 %
#455
b000000111100 B
b000000111011 #
b1 %
#456
b000000111101 B
b000000111001 #
b0 %
#457
b000000111101 B
b000000111001 #
b1 %
#458
b000000111101 B
b000000110110 #
b0 %
#459
b000000111101 B
b000000110110 #
b1 %
#460
b000000111101 B
b000000110100 #
b0 %
#461
b000000111101 B
b000000110100 #
b1 %
#462
b000000111110 B
b000000110010 #
b0 %
#463
b000000111110 B
b000000110010 #
b1 %
#464
b000000111110 B
b000000101111 #
b0 %
#465
b000000111110 B
b000000101111 #
b1 %
#466
b000000111111 B
b000000101101 #
b0 %
#467
b000000111111 B
b000000101101 #
b1 %
#468
b000001000000 B
b000000101010 #
b0 %
#469
b000001000000 B
b000000101010 #
b1 %
#470
b000001000000 B
b000000100111 #
b0 %
#471
b000001000000 B
b000000100111 #
b1 %
#472
b000001000001 B
b000000100101 #
b0 %
#473
b000001000001 B
b000000100101 #
b1 %
#474
b000001000001 B
b000000100010 #
b0 %
#475
b000001000001 B
b000000100010 #
b1 %
#476
b000001000001 B
b000000011111 #
b0 %
#477
b000001000001 B
b000000011111 #
b1 %
#478
b000001000010 B
b000000011100 #
b0 %
#479
b000001000010 B
b000000011100 #
b1 %
#480
b000001000010 B
b000000011001 #
b0 %
#481
b000001000010 B
b000000011001 #
b1 %
#482
b000001000010 B
b000000010110 #
b0 %
#483
b000001000010 B
b000000010110 #
b1 %
#484
b000001000011 B
b000000010100 #
b0 %
#485
b000001000011 B
b000000010100 #
b1 %
#486
b000001000011 B
b000000010001 #
b0 %
#487
b000001000011 B
b000000010001 #
b1 %
#488
b000001000100 B
b000000001110 #
b0 %
#489
b000001000100 B
b000000001110 #
b1 %
#490
b000001000100 B
b000000001011 #
b0 %
#491
b000001000100 B
b000000001011 #
b1 %
#492
b000001000100 B
b000000001001 #
b0 %
#493
b000001000100 B
b000000001001 #
b1 %
#494
b000001000100 B
b000000000110 #
b0 %
#495
b000001000100 B
b000000000110 #
b1 %
#496
b000001000100 B
b000000000011 #
b0 %
#497
b000001000100 B
b000000000011 #
b1 %
#498
b000001000101 B
b000000000000 #
b0 %
#499
b000001000101 B
b000000000000 #
b1 %
#500
b000001000101 B
b111111111101 #
b0 %
#501
b000001000101 B
b111111111101 #
b1 %
#502
b000001000101 B
b111111111011 #
b0 %
#503
b000001000101 B
b111111111011 #
b1 %
#504
b000001000101 B
b111111111000 #
b0 %
#505
b000001000101 B
b111111111000 #
b1 %
#506
b000001000101 B
b111111110110 #
b0 %
#507
b000001000101 B
b111111110110 #
b1 %
#508
b000001000101 B
b111111110011 #
b0 %
#509
b000001000101 B
b111111110011 #
b1 %
#510
b000001000101 B
b111111110001 #
b0 %
#511
b000001000101 B
b111111110001 #
b1 %
#512
b000001000101 B
b111111101110 #
b0 %
#513
b000001000101 B
b111111101110 #
b1 %
#514
b000001000101 B
b111111101100 #
b0 %
#515
b000001000101 B
b111111101100 #
b1 %
#516
b000001000101 B
b111111101001 #
b0 %
#517
b000001000101 B
b111111101001 #
b1 %
#518
b000001000101 B
b111111100111 #
b0 %
#519
b000001000101 B
b111111100111 #
b1 %
#520
b000001000101 B
b111111100101 #
b0 %
#521
b000001000101 B
b111111100101 #
b1 %
#522
b000001000101 B
b111111100011 #
b0 %
#523
b000001000101 B
b111111100011 #
b1 %
#524
b000001000100 B
b111111100001 #
b0 %
#525
b000001000100 B
b111111100001 #
b1 %
#526
b000001000100 B
b111111011111 #
b0 %
#527
b000001000100 B
b111111011111 #
b1 %
#528
b000001000100 B
b111111011101 #
b0 %
#529
b000001000100 B
b111111011101 #
b1 %
#530
b000001000011 B
b111111011011 #
b0 %
#531
b000001000011 B
b111111011011 #
b1 %
#532
b000001000011 B
b111111011000 #
b0 %
#533
b000001000011 B
b111111011000 #
b1 %
#534
b000001000011 B
b111111010111 #
b0 %
#535
b000001000011 B
b111111010111 #
b1 %
#536
b000001000011 B
b111111010101 #
b0 %
#537
b000001000011 B
b111111010101 #
b1 %
#538
b000001000010 B
b111111010011 #
b0 %
#539
b000001000010 B
b111111010011 #
b1 %
#540
b000001000010 B
b111111010010 #
b0 %
#541
b000001000010 B
b111111010010 #
b1 %
#542
b000001000001 B
b111111010000 #
b0 %
#543
b000001000001 B
b111111010000 #
b1 %
#544
b000001000000 B
b111111001110 #
b0 %
#545
b000001000000 B
b111111001110 #
b1 %
#546
b000000111111 B
b111111001100 #
b0 %
#547
b000000111111 B
b111111001100 #
b1 %
#548
b000000111111 B
b111111001010 #
b0 %
#549
b000000111111 B
b111111001010 #
b1 %
#550
b000000111110 B
b111111001001 #
b0 %
#551
b000000111110 B
b111111001001 #
b1 %
#552
b000000111110 B
b111111000111 #
b0 %
#553
b000000111110 B
b111111000111 #
b1 %
#554
b000000111101 B
b111111000110 #
b0 %
#555
b000000111101 B
b111111000110 #
b1 %
#556
b000000111011 B
b111111000101 #
b0 %
#557
b000000111011 B
b111111000101 #
b1 %
#558
b000000111010 B
b111111000011 #
b0 %
#559
b000000111010 B
b111111000011 #
b1 %
#560
b000000111001 B
b111111000010 #
b0 %
#561
b000000111001 B
b111111000010 #
b1 %
#562
b000000111001 B
b111111000000 #
b0 %
#563
b000000111001 B
b111111000000 #
b1 %
#564
b000000111000 B
b111110111111 #
b0 %
#565
b000000111000 B
b111110111111 #
b1 %
#566
b000000110111 B
b111110111110 #
b0 %
#567
b000000110111 B
b111110111110 #
b1 %
#568
b000000110110 B
b111110111101 #
b0 %
#569
b000000110110 B
b111110111101 #
b1 %
#570
b000000110101 B
b111110111100 #
b0 %
#571
b000000110101 B
b111110111100 #
b1 %
#572
b000000110100 B
b111110111011 #
b0 %
#573
b000000110100 B
b111110111011 #
b1 %
#574
b000000110011 B
b111110111010 #
b0 %
#575
b000000110011 B
b111110111010 #
b1 %
#576
b000000110010 B
b111110111001 #
b0 %
#577
b000000110010 B
b111110111001 #
b1 %
#578
b000000110010 B
b111110111000 #
b0 %
#579
b000000110010 B
b111110111000 #
b1 %
#580
b000000110001 B
b111110110110 #
b0 %
#581
b000000110001 B
b111110110110 #
b1 %
#582
b000000110000 B
b111110110110 #
b0 %
#583
b000000110000 B
b111110110110 #
b1 %
#584
b000000110000 B
b111110110101 #
b0 %
#585
b000000110000 B
b111110110101 #
b1 %
#586
b000000101111 B
b111110110100 #
b0 %
#587
b000000101111 B
b111110110100 #
b1 %
#588
b000000101110 B
b111110110100 #
b0 %
#589
b000000101110 B
b111110110100 #
b1 %
#590
b000000101110 B
b111110110011 #
b0 %
#591
b000000101110 B
b111110110011 #
b1 %
#592
b000000101101 B
b111110110010 #
b0 %
#593
b000000101101 B
b111110110010 #
b1 %
#594
b000000101100 B
b111110110001 #
b0 %
#595
b000000101100 B
b111110110001 #
b1 %
#596
b000000101100 B
b111110110000 #
b0 %
#597
b000000101100 B
b111110110000 #
b1 %
#598
b000000101011 B
b111110101111 #
b0 %
#599
b000000101011 B
b111110101111 #
b1 %
#600
b000000101011 B
b111110101111 #
b0 %
#601
b000000101011 B
b111110101111 #
b1 %
#602
b000000101010 B
b111110101110 #
b0 %
#603
b000000101010 B
b111110101110 #
b1 %
#604
b000000101001 B
b111110101110 #
b0 %
#605
b000000101001 B
b111110101110 #
b1 %
#606
b000000101000 B
b111110101110 #
b0 %
#607
b000000101000 B
b111110101110 #
b1 %
#608
b000000101000 B
b111110101101 #
b0 %
#609
b000000101000 B
b111110101101 #
b1 %
#610
b000000100111 B
b111110101100 #
b0 %
#611
b000000100111 B
b111110101100 #
b1 %
#612
b000000100110 B
b111110101100 #
b0 %
#613
b000000100110 B
b111110101100 #
b1 %
#614
b000000100110 B
b111110101011 #
b0 %
#615
b000000100110 B
b111110101011 #
b1 %
#616
b000000100101 B
b111110101011 #
b0 %
#617
b000000100101 B
b111110101011 #
b1 %
#618
b000000100100 B
b111110101011 #
b0 %
#619
b000000100100 B
b111110101011 #
b1 %
#620
b000000100011 B
b111110101011 #
b0 %
