bench/fm_sqr.vcd
$timescale 1ns $end
$scope module fm $end
$var wire 1 % clk $end
$var wire 12 # dmout $end
$upscope $end
$enddefinitions $end
#0
b000000000000 #
b0 %
#1
b000000000000 #
b1 %
#2
b000000000000 #
b0 %
#3
b000000000000 #
b1 %
#4
b000000000000 #
b0 %
#5
b000000000000 #
b1 %
#6
b000000000000 #
b0 %
#7
b000000000000 #
b1 %
#8
b000000000000 #
b0 %
#9
b000000000000 #
b1 %
#10
b000000000011 #
b0 %
#11
b000000000011 #
b1 %
#12
b000000001001 #
b0 %
#13
b000000001001 #
b1 %
#14
b000000010000 #
b0 %
#15
b000000010000 #
b1 %
#16
b000000010110 #
b0 %
#17
b000000010110 #
b1 %
#18
b000000011100 #
b0 %
#19
b000000011100 #
b1 %
#20
b000000100011 #
b0 %
#21
b000000100011 #
b1 %
#22
b000000101100 #
b0 %
#23
b000000101100 #
b1 %
#24
b000000111000 #
b0 %
#25
b000000111000 #
b1 %
#26
b000001000111 #
b0 %
#27
b000001000111 #
b1 %
#28
b000001011000 #
b0 %
#29
b000001011000 #
b1 %
#30
b000001101000 #
b0 %
#31
b000001101000 #
b1 %
#32
b000001111000 #
b0 %
#33
b000001111000 #
b1 %
#34
b000010000111 #
b0 %
#35
b000010000111 #
b1 %
#36
b000010010110 #
b0 %
#37
b000010010110 #
b1 %
#38
b000010100110 #
b0 %
#39
b000010100110 #
b1 %
#40
b000010111010 #
b0 %
#41
b000010111010 #
b1 %
#42
b000011001100 #
b0 %
#43
b000011001100 #
b1 %
#44
b000011011101 #
b0 %
#45
b000011011101 #
b1 %
#46
b000011101101 #
b0 %
#47
b000011101101 #
b1 %
#48
b000011111011 #
b0 %
#49
b000011111011 #
b1 %
#50
b000100001000 #
b0 %
#51
b000100001000 #
b1 %
#52
b000100010101 #
b0 %
#53
b000100010101 #
b1 %
#54
b000100100010 #
b0 %
#55
b000100100010 #
b1 %
#56
b000100101101 #
b0 %
#57
b000100101101 #
b1 %
#58
b000100111000 #
b0 %
#59
b000100111000 #
b1 %
#60
b000101000001 #
b0 %
#61
b000101000001 #
b1 %
#62
b000101001001 #
b0 %
#63
b000101001001 #
b1 %
#64
b000101010001 #
b0 %
#65
b000101010001 #
b1 %
#66
b000101011000 #
b0 %
#67
b000101011000 #
b1 %
#68
b000101011111 #
b0 %
#69
b000101011111 #
b1 %
#70
b000101100110 #
b0 %
#71
b000101100110 #
b1 %
#72
b000101101100 #
b0 %
#73
b000101101100 #
b1 %
#74
b000101110010 #
b0 %
#75
b000101110010 #
b1 %
#76
b000101110110 #
b0 %
#77
b000101110110 #
b1 %
#78
b000101111001 #
b0 %
#79
b000101111001 #
b1 %
#80
b000101111100 #
b0 %
#81
b000101111100 #
b1 %
#82
b000101111110 #
b0 %
#83
b000101111110 #
b1 %
#84
b000110000001 #
b0 %
#85
b000110000001 #
b1 %
#86
b000110000101 #
b0 %
#87
b000110000101 #
b1 %
#88
b000110000111 #
b0 %
#89
b000110000111 #
b1 %
#90
b000110001001 #
b0 %
#91
b000110001001 #
b1 %
#92
b000110001001 #
b0 %
#93
b000110001001 #
b1 %
#94
b000110001001 #
b0 %
#95
b000110001001 #
b1 %
#96
b000110001000 #
b0 %
#97
b000110001000 #
b1 %
#98
b000110001000 #
b0 %
#99
b000110001000 #
b1 %
#100
b000110001000 #
b0 %
#101
b000110001000 #
b1 %
#102
b000110001000 #
b0 %
#103
b000110001000 #
b1 %
#104
b000110001000 #
b0 %
#105
b000110001000 #
b1 %
#106
b000110000110 #
b0 %
#107
b000110000110 #
b1 %
#108
b000110000100 #
b0 %
#109
b000110000100 #
b1 %
#110
b000110000001 #
b0 %
#111
b000110000001 #
b1 %
#112
b000101111111 #
b0 %
#113
b000101111111 #
b1 %
#114
b000101111101 #
b0 %
#115
b000101111101 #
b1 %
#116
b000101111011 #
b0 %
#117
b000101111011 #
b1 %
#118
b000101111001 #
b0 %
#119
b000101111001 #
b1 %
#120
b000101110111 #
b0 %
#121
b000101110111 #
b1 %
#122
b000101110100 #
b0 %
#123
b000101110100 #
b1 %
#124
b000101110000 #
b0 %
#125
b000101110000 #
b1 %
#126
b000101101100 #
b0 %
#127
b000101101100 #
b1 %
#128
b000101101000 #
b0 %
#129
b000101101000 #
b1 %
#130
b000101100101 #
b0 %
#131
b000101100101 #
b1 %
#132
b000101100010 #
b0 %
#133
b000101100010 #
b1 %
#134
b000101011111 #
b0 %
#135
b000101011111 #
b1 %
#136
b000101011100 #
b0 %
#137
b000101011100 #
b1 %
#138
b000101010111 #
b0 %
#139
b000101010111 #
b1 %
#140
b000101010011 #
b0 %
#141
b000101010011 #
b1 %
#142
b000101001110 #
b0 %
#143
b000101001110 #
b1 %
#144
b000101001001 #
b0 %
#145
b000101001001 #
b1 %
#146
b000101000101 #
b0 %
#147
b000101000101 #
b1 %
#148
b000101000001 #
b0 %
#149
b000101000001 #
b1 %
#150
b000100111101 #
b0 %
#151
b000100111101 #
b1 %
#152
b000100111001 #
b0 %
#153
b000100111001 #
b1 %
#154
b000100110100 #
b0 %
#155
b000100110100 #
b1 %
#156
b000100101111 #
b0 %
#157
b000100101111 #
b1 %
#158
b000100101001 #
b0 %
#159
b000100101001 #
b1 %
#160
b000100100100 #
b0 %
#161
b000100100100 #
b1 %
#162
b000100100000 #
b0 %
#163
b000100100000 #
b1 %
#164
b000100011100 #
b0 %
#165
b000100011100 #
b1 %
#166
b000100011000 #
b0 %
#167
b000100011000 #
b1 %
#168
b000100010011 #
b0 %
#169
b000100010011 #
b1 %
#170
b000100001110 #
b0 %
#171
b000100001110 #
b1 %
#172
b000100001000 #
b0 %
#173
b000100001000 #
b1 %
#174
b000100000011 #
b0 %
#175
b000100000011 #
b1 %
#176
b000011111110 #
b0 %
#177
b000011111110 #
b1 %
#178
b000011111010 #
b0 %
#179
b000011111010 #
b1 %
#180
b000011110110 #
b0 %
#181
b000011110110 #
b1 %
#182
b000011110010 #
b0 %
#183
b000011110010 #
b1 %
#184
b000011101101 #
b0 %
#185
b000011101101 #
b1 %
#186
b000011101000 #
b0 %
#187
b000011101000 #
b1 %
#188
b000011100011 #
b0 %
#189
b000011100011 #
b1 %
#190
b000011011110 #
b0 %
#191
b000011011110 #
b1 %
#192
b000011011001 #
b0 %
#193
b000011011001 #
b1 %
#194
b000011010101 #
b0 %
#195
b000011010101 #
b1 %
#196
b000011010010 #
b0 %
#197
b000011010010 #
b1 %
#198
b000011001110 #
b0 %
#199
b000011001110 #
b1 %
#200
b000011001001 #
b0 %
#201
b000011001001 #
b1 %
#202
b000011000101 #
b0 %
#203
b000011000101 #
b1 %
#204
b000011000000 #
b0 %
#205
b000011000000 #
b1 %
#206
b000010111100 #
b0 %
#207
b000010111100 #
b1 %
#208
b000010111000 #
b0 %
#209
b000010111000 #
b1 %
#210
b000010110101 #
b0 %
#211
b000010110101 #
b1 %
#212
b000010110010 #
b0 %
#213
b000010110010 #
b1 %
#214
b000010101111 #
b0 %
#215
b000010101111 #
b1 %
#216
b000010101100 #
b0 %
#217
b000010101100 #
b1 %
#218
b000010101000 #
b0 %
#219
b000010101000 #
b1 %
#220
b000010100100 #
b0 %
#221
b000010100100 #
b1 %
#222
b000010100001 #
b0 %
#223
b000010100001 #
b1 %
#224
b000010011110 #
b0 %
#225
b000010011110 #
b1 %
#226
b000010011011 #
b0 %
#227
b000010011011 #
b1 %
#228
b000010011001 #
b0 %
#229
b000010011001 #
b1 %
#230
b000010010110 #
b0 %
#231
b000010010110 #
b1 %
#232
b000010010011 #
b0 %
#233
b000010010011 #
b1 %
#234
b000010010000 #
b0 %
#235
b000010010000 #
b1 %
#236
b000010001100 #
b0 %
#237
b000010001100 #
b1 %
#238
b000010001010 #
b0 %
#239
b000010001010 #
b1 %
#240
b000010000111 #
b0 %
#241
b000010000111 #
b1 %
#242
b000010000101 #
b0 %
#243
b000010000101 #
b1 %
#244
b000010000011 #
b0 %
#245
b000010000011 #
b1 %
#246
b000010000000 #
b0 %
#247
b000010000000 #
b1 %
#248
b000001111110 #
b0 %
#249
b000001111110 #
b1 %
#250
b000001111011 #
b0 %
#251
b000001111011 #
b1 %
#252
b000001111000 #
b0 %
#253
b000001111000 #
b1 %
#254
b000001110101 #
b0 %
#255
b000001110101 #
b1 %
#256
b000001110011 #
b0 %
#257
b000001110011 #
b1 %
#258
b000001110010 #
b0 %
#259
b000001110010 #
b1 %
#260
b000001110000 #
b0 %
#261
b000001110000 #
b1 %
#262
b000001101110 #
b0 %
#263
b000001101110 #
b1 %
#264
b000001101100 #
b0 %
#265
b000001101100 #
b1 %
#266
b000001101010 #
b0 %
#267
b000001101010 #
b1 %
#268
b000001101000 #
b0 %
#269
b000001101000 #
b1 %
#270
b000001100110 #
b0 %
#271
b000001100110 #
b1 %
#272
b000001100100 #
b0 %
#273
b000001100100 #
b1 %
#274
b000001100011 #
b0 %
#275
b000001100011 #
b1 %
#276
b000001100010 #
b0 %
#277
b000001100010 #
b1 %
#278
b000001100001 #
b0 %
#279
b000001100001 #
b1 %
#280
b000001011111 #
b0 %
#281
b000001011111 #
b1 %
#282
b000001011101 #
b0 %
#283
b000001011101 #
b1 %
#284
b000001011100 #
b0 %
#285
b000001011100 #
b1 %
#286
b000001011011 #
b0 %
#287
b000001011011 #
b1 %
#288
b000001011010 #
b0 %
#289
b000001011010 #
b1 %
#290
b000001011001 #
b0 %
#291
b000001011001 #
b1 %
#292
b000001011001 #
b0 %
#293
b000001011001 #
b1 %
#294
b000001011000 #
b0 %
#295
b000001011000 #
b1 %
#296
b000001010111 #
b0 %
#297
b000001010111 #
b1 %
#298
b000001010110 #
b0 %
#299
b000001010110 #
b1 %
#300
b000001010101 #
b0 %
#301
b000001010101 #
b1 %
#302
b000001010100 #
b0 %
#303
b000001010100 #
b1 %
#304
b000001010100 #
b0 %
#305
b000001010100 #
b1 %
#306
b000001010011 #
b0 %
#307
b000001010011 #
b1 %
#308
b000001010011 #
b0 %
#309
b000001010011 #
b1 %
#310
b000001010011 #
b0 %
#311
b000001010011 #
b1 %
#312
b000001010010 #
b0 %
#313
b000001010010 #
b1 %
#314
b000001010001 #
b0 %
#315
b000001010001 #
b1 %
#316
b000001010000 #
b0 %
#317
b000001010000 #
b1 %
#318
b000001010000 #
b0 %
#319
b000001010000 #
b1 %
#320
b000001010000 #
b0 %
#321
b000001010000 #
b1 %
#322
b000001010000 #
b0 %
#323
b000001010000 #
b1 %
#324
b000001001111 #
b0 %
#325
b000001001111 #
b1 %
#326
b000001001111 #
b0 %
#327
b000001001111 #
b1 %
#328
b000001001110 #
b0 %
#329
b000001001110 #
b1 %
#330
b000001001110 #
b0 %
#331
b000001001110 #
b1 %
#332
b000001001101 #
b0 %
#333
b000001001101 #
b1 %
#334
b000001001101 #
b0 %
#335
b000001001101 #
b1 %
#336
b000001001101 #
b0 %
#337
b000001001101 #
b1 %
#338
b000001001101 #
b0 %
#339
b000001001101 #
b1 %
#340
b000001001101 #
b0 %
#341
b000001001101 #
b1 %
#342
b000001001100 #
b0 %
#343
b000001001100 #
b1 %
#344
b000001001100 #
b0 %
#345
b000001001100 #
b1 %
#346
b000001001011 #
b0 %
#347
b000001001011 #
b1 %
#348
b000001001011 #
b0 %
#349
b000001001011 #
b1 %
#350
b000001001011 #
b0 %
#351
b000001001011 #
b1 %
#352
b000001001011 #
b0 %
#353
b000001001011 #
b1 %
#354
b000001001011 #
b0 %
#355
b000001001011 #
b1 %
#356
b000001001011 #
b0 %
#357
b000001001011 #
b1 %
#358
b000001001011 #
b0 %
#359
b000001001011 #
b1 %
#360
b000001001011 #
b0 %
#361
b000001001011 #
b1 %
#362
b000001001010 #
b0 %
#363
b000001001010 #
b1 %
#364
b000001001010 #
b0 %
#365
b000001001010 #
b1 %
#366
b000001001010 #
b0 %
#367
b000001001010 #
b1 %
#368
b000001001010 #
b0 %
#369
b000001001010 #
b1 %
#370
b000001001010 #
b0 %
#371
b000001001010 #
b1 %
#372
b000001001010 #
b0 %
#373
b000001001010 #
b1 %
#374
b000001001010 #
b0 %
#375
b000001001010 #
b1 %
#376
b000001001010 #
b0 %
#377
b000001001010 #
b1 %
#378
b000001001010 #
b0 %
#379
b000001001010 #
b1 %
#380
b000001001001 #
b0 %
#381
b000001001001 #
b1 %
#382
b000001001001 #
b0 %
#383
b000001001001 #
b1 %
#384
b000001001010 #
b0 %
#385
b000001001010 #
b1 %
#386
b000001001010 #
b0 %
#387
b000001001010 #
b1 %
#388
b000001001010 #
b0 %
#389
b000001001010 #
b1 %
#390
b000001001010 #
b0 %
#391
b000001001010 #
b1 %
#392
b000001001010 #
b0 %
#393
b000001001010 #
b1 %
#394
b000001001010 #
b0 %
#395
b000001001010 #
b1 %
#396
b000001001001 #
b0 %
#397
b000001001001 #
b1 %
#398
b000001001010 #
b0 %
#399
b000001001010 #
b1 %
#400
b000001001010 #
b0 %
#401
b000001001010 #
b1 %
#402
b000001001010 #
b0 %
#403
b000001001010 #
b1 %
#404
b000001001011 #
b0 %
#405
b000001001011 #
b1 %
#406
b000001001011 #
b0 %
#407
b000001001011 #
b1 %
#408
b000001001010 #
b0 %
#409
b000001001010 #
b1 %
#410
b000001001010 #
b0 %
#411
b000001001010 #
b1 %
#412
b000001001010 #
b0 %
#413
b000001001010 #
b1 %
#414
b000001001010 #
b0 %
#415
b000001001010 #
b1 %
#416
b000001001011 #
b0 %
#417
b000001001011 #
b1 %
#418
b000001001011 #
b0 %
#419
b000001001011 #
b1 %
#420
b000001001011 #
b0 %
#421
b000001001011 #
b1 %
#422
b000001001011 #
b0 %
#423
b000001001011 #
b1 %
#424
b000001001011 #
b0 %
#425
b000001001011 #
b1 %
#426
b000001001010 #
b0 %
#427
b000001001010 #
b1 %
#428
b000001001010 #
b0 %
#429
b000001001010 #
b1 %
#430
b000001001001 #
b0 %
#431
b000001001001 #
b1 %
#432
b000001001001 #
b0 %
#433
b000001001001 #
b1 %
#434
b000001001000 #
b0 %
#435
b000001001000 #
b1 %
#436
b000001001000 #
b0 %
#437
b000001001000 #
b1 %
#438
b000001000111 #
b0 %
#439
b000001000111 #
b1 %
#440
b000001000110 #
b0 %
#441
b000001000110 #
b1 %
#442
b000001000101 #
b0 %
#443
b000001000101 #
b1 %
#444
b000001000011 #
b0 %
#445
b000001000011 #
b1 %
#446
b000001000010 #
b0 %
#447
b000001000010 #
b1 %
#448
b000001000000 #
b0 %
#449
b000001000000 #
b1 %
#450
b000000111110 #
b0 %
#451
b000000111110 #
b1 %
#452
b000000111100 #
b0 %
#453
b000000111100 #
b1 %
#454
b000000111011 #
b0 %
#455
b000000111011 #
b1 %
#456
b000000111001 #
b0 %
#457
b000000111001 #
b1 %
#458
b000000110110 #
b0 %
#459
b000000110110 #
b1 %
#460
b000000110100 #
b0 %
#461
b000000110100 #
b1 %
#462
b000000110010 #
b0 %
#463
b000000110010 #
b1 %
#464
b000000101111 #
b0 %
#465
b000000101111 #
b1 %
#466
b000000101101 #
b0 %
#467
b000000101101 #
b1 %
#468
b000000101010 #
b0 %
#469
b000000101010 #
b1 %
#470
b000000100111 #
b0 %
#471
b000000100111 #
b1 %
#472
b000000100101 #
b0 %
#473
b000000100101 #
b1 %
#474
b000000100010 #
b0 %
#475
b000000100010 #
b1 %
#476
b000000011111 #
b0 %
#477
b000000011111 #
b1 %
#478
b000000011100 #
b0 %
#479
b000000011100 #
b1 %
#480
b000000011001 #
b0 %
#481
b000000011001 #
b1 %
#482
b000000010110 #
b0 %
#483
b000000010110 #
b1 %
#484
b000000010100 #
b0 %
#485
b000000010100 #
b1 %
#486
b000000010001 #
b0 %
#487
b000000010001 #
b1 %
#488
b000000001110 #
b0 %
#489
b000000001110 #
b1 %
#490
b000000001011 #
b0 %
#491
b000000001011 #
b1 %
#492
b000000001001 #
b0 %
#493
b000000001001 #
b1 %
#494
b000000000110 #
b0 %
#495
b000000000110 #
b1 %
#496
b000000000011 #
b0 %
#497
b000000000011 #
b1 %
#498
b000000000000 #
b0 %
#499
b000000000000 #
b1 %
#500
b111111111101 #
b0 %
#501
b111111111101 #
b1 %
#502
b111111111011 #
b0 %
#503
b111111111011 #
b1 %
#504
b111111111000 #
b0 %
#505
b111111111000 #
b1 %
#506
b111111110110 #
b0 %
#507
b111111110110 #
b1 %
#508
b111111110011 #
b0 %
#509
b111111110011 #
b1 %
#510
b111111110001 #
b0 %
#511
b111111110001 #
b1 %
#512
b111111101110 #
b0 %
#513
b111111101110 #
b1 %
#514
b111111101100 #
b0 %
#515
b111111101100 #
b1 %
#516
b111111101001 #
b0 %
#517
b111111101001 #
b1 %
#518
b111111100111 #
b0 %
#519
b111111100111 #
b1 %
#520
b111111100101 #
b0 %
#521
b111111100101 #
b1 %
#522
b111111100011 #
b0 %
#523
b111111100011 #
b1 %
#524
b111111100001 #
b0 %
#525
b111111100001 #
b1 %
#526
b111111011111 #
b0 %
#527
b111111011111 #
b1 %
#528
b111111011101 #
b0 %
#529
b111111011101 #
b1 %
#530
b111111011011 #
b0 %
#531
b111111011011 #
b1 %
#532
b111111011000 #
b0 %
#533
b111111011000 #
b1 %
#534
b111111010111 #
b0 %
#535
b111111010111 #
b1 %
#536
b111111010101 #
b0 %
#537
b111111010101 #
b1 %
#538
b111111010011 #
b0 %
#539
b111111010011 #
b1 %
#540
b111111010010 #
b0 %
#541
b111111010010 #
b1 %
#542
b111111010000 #
b0 %
#543
b111111010000 #
b1 %
#544
b111111001110 #
b0 %
#545
b111111001110 #
b1 %
#546
b111111001100 #
b0 %
#547
b111111001100 #
b1 %
#548
b111111001010 #
b0 %
#549
b111111001010 #
b1 %
#550
b111111001001 #
b0 %
#551
b111111001001 #
b1 %
#552
b111111000111 #
b0 %
#553
b111111000111 #
b1 %
#554
b111111000110 #
b0 %
#555
b111111000110 #
b1 %
#556
b111111000101 #
b0 %
#557
b111111000101 #
b1 %
#558
b111111000011 #
b0 %
#559
b111111000011 #
b1 %
#560
b111111000010 #
b0 %
#561
b111111000010 #
b1 %
#562
b111111000000 #
b0 %
#563
b111111000000 #
b1 %
#564
b111110111111 #
b0 %
#565
b111110111111 #
b1 %
#566
b111110111110 #
b0 %
#567
b111110111110 #
b1 %
#568
b111110111101 #
b0 %
#569
b111110111101 #
b1 %
#570
b111110111100 #
b0 %
#571
b111110111100 #
b1 %
#572
b111110111011 #
b0 %
#573
b111110111011 #
b1 %
#574
b111110111010 #
b0 %
#575
b111110111010 #
b1 %
#576
b111110111001 #
b0 %
#577
b111110111001 #
b1 %
#578
b111110111000 #
b0 %
#579
b111110111000 #
b1 %
#580
b111110110110 #
b0 %
#581
b111110110110 #
b1 %
#582
b111110110110 #
b0 %
#583
b111110110110 #
b1 %
#584
b111110110101 #
b0 %
#585
b111110110101 #
b1 %
#586
b111110110100 #
b0 %
#587
b111110110100 #
b1 %
#588
b111110110100 #
b0 %
#589
b111110110100 #
b1 %
#590
b111110110011 #
b0 %
#591
b111110110011 #
b1 %
#592
b111110110010 #
b0 %
#593
b111110110010 #
b1 %
#594
b111110110001 #
b0 %
#595
b111110110001 #
b1 %
#596
b111110110000 #
b0 %
#597
b111110110000 #
b1 %
#598
b111110101111 #
b0 %
#599
b111110101111 #
b1 %
#600
b111110101111 #
b0 %
#601
b111110101111 #
b1 %
#602
b111110101110 #
b0 %
#603
b111110101110 #
b1 %
#604
b111110101110 #
b0 %
#605
b111110101110 #
b1 %
#606
b111110101110 #
b0 %
#607
b111110101110 #
b1 %
#608
b111110101101 #
b0 %
#609
b111110101101 #
b1 %
#610
b111110101100 #
b0 %
#611
b111110101100 #
b1 %
#612
b111110101100 #
b0 %
#613
b111110101100 #
b1 %
#614
b111110101011 #
b0 %
#615
b111110101011 #
b1 %
#616
b111110101011 #
b0 %
#617
b111110101011 #
b1 %
#618
b111110101011 #
b0 %
#619
b111110101011 #
b1 %
#620
b111110101011 #
b0 %
#621
b111110101011 #
b1 %
#622
b111110101011 #
b0 %
#623
b111110101011 #
b1 %
#624
b111110101011 #
b0 %
#625
b111110101011 #
b1 %
#626
b111110101010 #
b0 %
#627
b111110101010 #
b1 %
#628
b111110101001 #
b0 %
#629
b111110101001 #
b1 %
#630
b111110101001 #
b0 %
#631
b111110101001 #
b1 %
#632
b111110101001 #
b0 %
#633
b111110101001 #
b1 %
#634
b111110101001 #
b0 %
#635
b111110101001 #
b1 %
#636
b111110101001 #
b0 %
#637
b111110101001 #
b1 %
#638
b111110101001 #
b0 %
#639
b111110101001 #
b1 %
#640
b111110101001 #
b0 %
#641
b111110101001 #
b1 %
#642
b111110101000 #
b0 %
#643
b111110101000 #
b1 %
#644
b111110101000 #
b0 %
#645
b111110101000 #
b1 %
#646
b111110101000 #
b0 %
#647
b111110101000 #
b1 %
#648
b111110101000 #
b0 %
#649
b111110101000 #
b1 %
#650
b111110101000 #
b0 %
#651
b111110101000 #
b1 %
#652
b111110101000 #
b0 %
#653
b111110101000 #
b1 %
#654
b111110101000 #
b0 %
#655
b111110101000 #
b1 %
#656
b111110101000 #
b0 %
#657
b111110101000 #
b1 %
#658
b111110101000 #
b0 %
#659
b111110101000 #
b1 %
#660
b111110101000 #
b0 %
#661
b111110101000 #
b1 %
#662
b111110101000 #
b0 %
#663
b111110101000 #
b1 %
#664
b111110101000 #
b0 %
#665
b111110101000 #
b1 %
#666
b111110101000 #
b0 %
#667
b111110101000 #
b1 %
#668
b111110101001 #
b0 %
#669
b111110101001 #
b1 %
#670
b111110101001 #
b0 %
#671
b111110101001 #
b1 %
#672
b111110101001 #
b0 %
#673
b111110101001 #
b1 %
#674
b111110101000 #
b0 %
#675
b111110101000 #
b1 %
#676
b111110101000 #
b0 %
#677
b111110101000 #
b1 %
#678
b111110101000 #
b0 %
#679
b111110101000 #
b1 %
#680
b111110101000 #
b0 %
#681
b111110101000 #
b1 %
#682
b111110101001 #
b0 %
#683
b111110101001 #
b1 %
#684
b111110101001 #
b0 %
#685
b111110101001 #
b1 %
#686
b111110101001 #
b0 %
#687
b111110101001 #
b1 %
#688
b111110101001 #
b0 %
#689
b111110101001 #
b1 %
#690
b111110101001 #
b0 %
#691
b111110101001 #
b1 %
#692
b111110101000 #
b0 %
#693
b111110101000 #
b1 %
#694
b111110101000 #
b0 %
#695
b111110101000 #
b1 %
#696
b111110101000 #
b0 %
#697
b111110101000 #
b1 %
#698
b111110101001 #
b0 %
#699
b111110101001 #
b1 %
#700
b111110101001 #
b0 %
#701
b111110101001 #
b1 %
#702
b111110101001 #
b0 %
#703
b111110101001 #
b1 %
#704
b111110101001 #
b0 %
#705
b111110101001 #
b1 %
#706
b111110101001 #
b0 %
#707
b111110101001 #
b1 %
#708
b111110101001 #
b0 %
#709
b111110101001 #
b1 %
#710
b111110101001 #
b0 %
#711
b111110101001 #
b1 %
#712
b111110101001 #
b0 %
#713
b111110101001 #
b1 %
#714
b111110101001 #
b0 %
#715
b111110101001 #
b1 %
#716
b111110101010 #
b0 %
#717
b111110101010 #
b1 %
#718
b111110101010 #
b0 %
#719
b111110101010 #
b1 %
#720
b111110101010 #
b0 %
#721
b111110101010 #
b1 %
#722
b111110101010 #
b0 %
#723
b111110101010 #
b1 %
#724
b111110101010 #
b0 %
#725
b111110101010 #
b1 %
#726
b111110101010 #
b0 %
#727
b111110101010 #
b1 %
#728
b111110101010 #
b0 %
#729
b111110101010 #
b1 %
#730
b111110101010 #
b0 %
#731
b111110101010 #
b1 %
#732
b111110101010 #
b0 %
#733
b111110101010 #
b1 %
#734
b111110101011 #
b0 %
#735
b111110101011 #
b1 %
#736
b111110101011 #
b0 %
#737
b111110101011 #
b1 %
#738
b111110101010 #
b0 %
#739
b111110101010 #
b1 %
#740
b111110101010 #
b0 %
#741
b111110101010 #
b1 %
#742
b111110101010 #
b0 %
#743
b111110101010 #
b1 %
#744
b111110101010 #
b0 %
#745
b111110101010 #
b1 %
#746
b111110101010 #
b0 %
#747
b111110101010 #
b1 %
#748
b111110101010 #
b0 %
#749
b111110101010 #
b1 %
#750
b111110101011 #
b0 %
#751
b111110101011 #
b1 %
#752
b111110101011 #
b0 %
#753
b111110101011 #
b1 %
#754
b111110101010 #
b0 %
#755
b111110101010 #
b1 %
#756
b111110101010 #
b0 %
#757
b111110101010 #
b1 %
#758
b111110101010 #
b0 %
#759
b111110101010 #
b1 %
#760
b111110101011 #
b0 %
#761
b111110101011 #
b1 %
#762
b111110101011 #
b0 %
#763
b111110101011 #
b1 %
#764
b111110101100 #
b0 %
#765
b111110101100 #
b1 %
#766
b111110101100 #
b0 %
#767
b111110101100 #
b1 %
#768
b111110101100 #
b0 %
#769
b111110101100 #
b1 %
#770
b111110101100 #
b0 %
#771
b111110101100 #
b1 %
#772
b111110101100 #
b0 %
#773
b111110101100 #
b1 %
#774
b111110101100 #
b0 %
#775
b111110101100 #
b1 %
#776
b111110101101 #
b0 %
#777
b111110101101 #
b1 %
#778
b111110101101 #
b0 %
#779
b111110101101 #
b1 %
#780
b111110101110 #
b0 %
#781
b111110101110 #
b1 %
#782
b111110101110 #
b0 %
#783
b111110101110 #
b1 %
#784
b111110101110 #
b0 %
#785
b111110101110 #
b1 %
#786
b111110101110 #
b0 %
#787
b111110101110 #
b1 %
#788
b111110101110 #
b0 %
#789
b111110101110 #
b1 %
#790
b111110101110 #
b0 %
#791
b111110101110 #
b1 %
#792
b111110101110 #
b0 %
#793
b111110101110 #
b1 %
#794
b111110101110 #
b0 %
#795
b111110101110 #
b1 %
#796
b111110101110 #
b0 %
#797
b111110101110 #
b1 %
#798
b111110101111 #
b0 %
#799
b111110101111 #
b1 %
#800
b111110101111 #
b0 %
#801
b111110101111 #
b1 %
#802
b111110101111 #
b0 %
#803
b111110101111 #
b1 %
#804
b111110101110 #
b0 %
#805
b111110101110 #
b1 %
#806
b111110101110 #
b0 %
#807
b111110101110 #
b1 %
#808
b111110101110 #
b0 %
#809
b111110101110 #
b1 %
#810
b111110101110 #
b0 %
#811
b111110101110 #
b1 %
#812
b111110101111 #
b0 %
#813
b111110101111 #
b1 %
#814
b111110101111 #
b0 %
#815
b111110101111 #
b1 %
#816
b111110101111 #
b0 %
#817
b111110101111 #
b1 %
#818
b111110101111 #
b0 %
#819
b111110101111 #
b1 %
#820
b111110101111 #
b0 %
#821
b111110101111 #
b1 %
#822
b111110101111 #
b0 %
#823
b111110101111 #
b1 %
#824
b111110110000 #
b0 %
#825
b111110110000 #
b1 %
#826
b111110110000 #
b0 %
#827
b111110110000 #
b1 %
#828
b111110110001 #
b0 %
#829
b111110110001 #
b1 %
#830
b111110110010 #
b0 %
#831
b111110110010 #
b1 %
#832
b111110110010 #
b0 %
#833
b111110110010 #
b1 %
#834
b111110110011 #
b0 %
#835
b111110110011 #
b1 %
#836
b111110110100 #
b0 %
#837
b111110110100 #
b1 %
#838
b111110110101 #
b0 %
#839
b111110110101 #
b1 %
#840
b111110110111 #
b0 %
#841
b111110110111 #
b1 %
#842
b111110111000 #
b0 %
#843
b111110111000 #
b1 %
#844
b111110111010 #
b0 %
#845
b111110111010 #
b1 %
#846
b111110111100 #
b0 %
#847
b111110111100 #
b1 %
#848
b111110111101 #
b0 %
#849
b111110111101 #
b1 %
#850
b111110111111 #
b0 %
#851
b111110111111 #
b1 %
#852
b111111000010 #
b0 %
#853
b111111000010 #
b1 %
#854
b111111000100 #
b0 %
#855
b111111000100 #
b1 %
#856
b111111000110 #
b0 %
#857
b111111000110 #
b1 %
#858
b111111001001 #
b0 %
#859
b111111001001 #
b1 %
#860
b111111001011 #
b0 %
#861
b111111001011 #
b1 %
#862
b111111001101 #
b0 %
#863
b111111001101 #
b1 %
#864
b111111010000 #
b0 %
#865
b111111010000 #
b1 %
#866
b111111010011 #
b0 %
#867
b111111010011 #
b1 %
#868
b111111010110 #
b0 %
#869
b111111010110 #
b1 %
#870
b111111011000 #
b0 %
#871
b111111011000 #
b1 %
#872
b111111011011 #
b0 %
#873
b111111011011 #
b1 %
#874
b111111011110 #
b0 %
#875
b111111011110 #
b1 %
#876
b111111100000 #
b0 %
#877
b111111100000 #
b1 %
#878
b111111100011 #
b0 %
#879
b111111100011 #
b1 %
#880
b111111100110 #
b0 %
#881
b111111100110 #
b1 %
#882
b111111101001 #
b0 %
#883
b111111101001 #
b1 %
#884
b111111101100 #
b0 %
#885
b111111101100 #
b1 %
#886
b111111101111 #
b0 %
#887
b111111101111 #
b1 %
#888
b111111110010 #
b0 %
#889
b111111110010 #
b1 %
#890
b111111110100 #
b0 %
#891
b111111110100 #
b1 %
#892
b111111110111 #
b0 %
#893
b111111110111 #
b1 %
#894
b111111111001 #
b0 %
#895
b111111111001 #
b1 %
#896
b111111111100 #
b0 %
#897
b111111111100 #
b1 %
#898
b111111111111 #
b0 %
#899
b111111111111 #
b1 %
#900
b000000000010 #
b0 %
#901
b000000000010 #
b1 %
#902
b000000000100 #
b0 %
#903
b000000000100 #
b1 %
#904
b000000000111 #
b0 %
#905
b000000000111 #
b1 %
#906
b000000001001 #
b0 %
#907
b000000001001 #
b1 %
#908
b000000001011 #
b0 %
#909
b000000001011 #
b1 %
#910
b000000001110 #
b0 %
#911
b000000001110 #
b1 %
#912
b000000010000 #
b0 %
#913
b000000010000 #
b1 %
#914
b000000010010 #
b0 %
#915
b000000010010 #
b1 %
#916
b000000010101 #
b0 %
#917
b000000010101 #
b1 %
#918
b000000010111 #
b0 %
#919
b000000010111 #
b1 %
#920
b000000011010 #
b0 %
#921
b000000011010 #
b1 %
#922
b000000011100 #
b0 %
#923
b000000011100 #
b1 %
#924
b000000011110 #
b0 %
#925
b000000011110 #
b1 %
#926
b000000100000 #
b0 %
#927
b000000100000 #
b1 %
#928
b000000100010 #
b0 %
#929
b000000100010 #
b1 %
#930
b000000100100 #
b0 %
#931
b000000100100 #
b1 %
