alu/systemc/obj_dir/tracefile.vcd
$date
     Mar 30, 2009       12:36:12
$end

$version
              SystemC 2.2.0 --- Mar 26 2009 09:23:27
$end

$timescale
     1 ps
$end

$scope module SystemC $end
$var wire    8  aaa  top_v_A [7:0]  $end
$var wire    8  aab  top_v_B [7:0]  $end
$var wire    8  aac  top_v_Y [7:0]  $end
$var wire    8  aad  top_v_S [7:0]  $end
$var wire    8  aae  top_v_clk [7:0]  $end
$var wire    8  aaf  top_v_C [7:0]  $end
$var wire    8  aag  top_v_V [7:0]  $end
$var wire    8  aah  top_v_Z [7:0]  $end
$var wire    1  aai  top_systemc_clk       $end
$upscope $end
$enddefinitions  $end

$comment
All initial values are dumped below at time 0 sec = 0 timescale units.
$end

$dumpvars
b0 aaa
b0 aab
b0 aac
b0 aad
b1 aae
b0 aaf
b0 aag
b1 aah
0aai
$end

#3000
b1100111 aaa
b11000110 aab
b1 aad
b0 aae
1aai

#8000
b1 aae
0aai

#13000
b11111111 aaa
b1001010 aab
b10 aad
b0 aae
1aai

#18000
b1 aac
b1 aae
b0 aah
0aai

#23000
b10111010 aaa
b10101011 aab
b0 aad
b0 aae
1aai

#28000
b10110101 aac
b1 aae
0aai

#33000
b1000110 aaa
b1111100 aab
b1001 aad
b0 aae
1aai

#38000
b1100101 aac
b1 aae
b1 aaf
0aai

#43000
b11011 aaa
b11101000 aab
b1 aad
b0 aae
1aai

#48000
b1111101 aac
b1 aae
0aai

#53000
b1011010 aaa
b101110 aab
b110 aad
b0 aae
1aai

#58000
b11100 aac
b1 aae
0aai

#63000
b11001001 aaa
b10011010 aab
b1010 aad
b0 aae
1aai

#68000
b0 aac
b1 aae
b0 aaf
0aai

#73000
b10110111 aaa
b110001 aab
b0 aae
1aai

#78000
b1 aae
b1 aah
0aai

#83000
b100101 aaa
b1011101 aab
b110 aad
b0 aae
1aai

#88000
b11101000 aac
b1 aae
b0 aah
0aai

#93000
b11101001 aaa
b1011110 aab
b1 aad
b0 aae
1aai

#98000
b0 aac
b1 aae
0aai

#103000
b11001101 aaa
b11000110 aab
b101 aad
b0 aae
1aai

#108000
b1 aac
b1 aae
0aai

#113000
b10001 aaa
b1110 aab
b10 aad
b0 aae
1aai

#118000
b110111 aac
b1 aae
b1 aaf
0aai

#123000
b100001 aaa
b111101 aab
b1000 aad
b0 aae
1aai

#128000
b11 aac
b1 aae
0aai

#133000
b11101001 aaa
b111110 aab
b1001 aad
b0 aae
1aai

#138000
b111100 aac
b1 aae
0aai

#143000
b11111100 aaa
b1100111 aab
b0 aad
b0 aae
1aai

#148000
b111111 aac
b1 aae
0aai

#153000
b10010111 aaa
b11101010 aab
b11 aad
b0 aae
1aai

#158000
b1100011 aac
b1 aae
0aai

#163000
b10001111 aaa
b111000 aab
b1 aad
b0 aae
1aai

#168000
b1111101 aac
b1 aae
0aai

#173000
b10110000 aaa
b111011 aab
b110 aad
b0 aae
1aai

#178000
b10010000 aac
b1 aae
0aai

#183000
b111100 aaa
b1010100 aab
b0 aae
1aai

#188000
b0 aac
b1 aae
b0 aaf
0aai

#193000
b1011100 aaa
b10 aab
b1001 aad
b0 aae
1aai

#198000
b1 aae
b1 aah
0aai

#203000
b11111011 aaa
b11111010 aab
b101 aad
b0 aae
1aai

#208000
b1 aac
b1 aae
b0 aah
0aai

#213000
b101001 aaa
b11010001 aab
b1010 aad
b0 aae
1aai

#218000
b11111110 aac
b1 aae
0aai

#223000
b1111100 aaa
b10010100 aab
b1000 aad
b0 aae
1aai

#228000
b11111010 aac
b1 aae
0aai

#233000
b1100001 aaa
b10001001 aab
b1 aad
b0 aae
1aai

#238000
b10010011 aac
b1 aae
0aai

#243000
b10101000 aaa
b10011001 aab
b0 aad
b0 aae
1aai

#248000
b1100010 aac
b1 aae
0aai

#253000
b11101011 aaa
b11110001 aab
b1001 aad
b0 aae
1aai

#258000
b1000001 aac
b1 aae
b1 aaf
0aai

#263000
b11110111 aaa
b0 aab
b101 aad
b0 aae
1aai

#268000
b11110010 aac
b1 aae
0aai

#273000
b11100101 aaa
b11001010 aab
b111 aad
b0 aae
1aai

#278000
b11110111 aac
b1 aae
b0 aaf
0aai

#283000
b1001000 aaa
b1000111 aab
b1 aad
b0 aae
1aai

#288000
b11100100 aac
b1 aae
0aai

#293000
b100011 aaa
b11110 aab
b1010 aad
b0 aae
1aai

#298000
b1001001 aac
b1 aae
0aai

#303000
b1100100 aaa
b11000101 aab
b0 aad
b0 aae
1aai

